info face="Bright and Beautiful" size=-144 bold=0 italic=0 charset="" unicode=1 stretchH=100 smooth=1 aa=1 padding=0,0,0,0 spacing=1,1 outline=1
common lineHeight=173 base=134 scaleW=512 scaleH=512 pages=1 packed=0 alphaChnl=1 redChnl=0 greenChnl=0 blueChnl=0
page id=0 file="brightBeautiful144_0.png"
chars count=209
char id=19   x=502   y=56    width=3     height=3     xoffset=-1    yoffset=-1    xadvance=144   page=0  chnl=15
char id=20   x=502   y=0     width=3     height=3     xoffset=-1    yoffset=-1    xadvance=144   page=0  chnl=15
char id=30   x=506   y=0     width=3     height=3     xoffset=-1    yoffset=-1    xadvance=144   page=0  chnl=15
char id=31   x=22    y=83    width=3     height=3     xoffset=-1    yoffset=-1    xadvance=144   page=0  chnl=15
char id=32   x=26    y=83    width=3     height=3     xoffset=-1    yoffset=-1    xadvance=18    page=0  chnl=15
char id=33   x=80    y=230   width=13    height=70    xoffset=0     yoffset=65    xadvance=14    page=0  chnl=15
char id=34   x=488   y=220   width=20    height=18    xoffset=1     yoffset=59    xadvance=21    page=0  chnl=15
char id=35   x=175   y=227   width=44    height=60    xoffset=1     yoffset=68    xadvance=45    page=0  chnl=15
char id=36   x=234   y=0     width=34    height=77    xoffset=1     yoffset=64    xadvance=37    page=0  chnl=15
char id=37   x=502   y=4     width=3     height=3     xoffset=-1    yoffset=-1    xadvance=144   page=0  chnl=15
char id=38   x=232   y=226   width=42    height=55    xoffset=1     yoffset=80    xadvance=43    page=0  chnl=15
char id=39   x=501   y=75    width=10    height=18    xoffset=1     yoffset=59    xadvance=12    page=0  chnl=15
char id=40   x=502   y=8     width=3     height=3     xoffset=-1    yoffset=-1    xadvance=144   page=0  chnl=15
char id=41   x=502   y=12    width=3     height=3     xoffset=-1    yoffset=-1    xadvance=144   page=0  chnl=15
char id=42   x=502   y=16    width=3     height=3     xoffset=-1    yoffset=-1    xadvance=144   page=0  chnl=15
char id=43   x=502   y=20    width=3     height=3     xoffset=-1    yoffset=-1    xadvance=144   page=0  chnl=15
char id=44   x=223   y=287   width=11    height=16    xoffset=0     yoffset=127   xadvance=13    page=0  chnl=15
char id=45   x=502   y=24    width=3     height=3     xoffset=-1    yoffset=-1    xadvance=144   page=0  chnl=15
char id=46   x=235   y=282   width=10    height=9     xoffset=1     yoffset=126   xadvance=14    page=0  chnl=15
char id=47   x=502   y=28    width=3     height=3     xoffset=-1    yoffset=-1    xadvance=144   page=0  chnl=15
char id=48   x=0     y=87    width=29    height=74    xoffset=1     yoffset=61    xadvance=31    page=0  chnl=15
char id=49   x=0     y=235   width=13    height=71    xoffset=1     yoffset=64    xadvance=15    page=0  chnl=15
char id=50   x=382   y=76    width=27    height=73    xoffset=0     yoffset=62    xadvance=28    page=0  chnl=15
char id=51   x=259   y=78    width=31    height=73    xoffset=2     yoffset=62    xadvance=35    page=0  chnl=15
char id=52   x=431   y=149   width=36    height=71    xoffset=0     yoffset=63    xadvance=37    page=0  chnl=15
char id=53   x=14    y=235   width=38    height=70    xoffset=1     yoffset=65    xadvance=40    page=0  chnl=15
char id=54   x=462   y=75    width=38    height=72    xoffset=1     yoffset=64    xadvance=40    page=0  chnl=15
char id=55   x=94    y=230   width=25    height=69    xoffset=2     yoffset=66    xadvance=27    page=0  chnl=15
char id=56   x=321   y=150   width=27    height=72    xoffset=1     yoffset=63    xadvance=29    page=0  chnl=15
char id=57   x=53    y=235   width=26    height=70    xoffset=2     yoffset=65    xadvance=29    page=0  chnl=15
char id=58   x=502   y=32    width=3     height=3     xoffset=-1    yoffset=-1    xadvance=144   page=0  chnl=15
char id=59   x=502   y=36    width=3     height=3     xoffset=-1    yoffset=-1    xadvance=144   page=0  chnl=15
char id=60   x=502   y=40    width=3     height=3     xoffset=-1    yoffset=-1    xadvance=144   page=0  chnl=15
char id=61   x=502   y=44    width=3     height=3     xoffset=-1    yoffset=-1    xadvance=144   page=0  chnl=15
char id=62   x=502   y=48    width=3     height=3     xoffset=-1    yoffset=-1    xadvance=144   page=0  chnl=15
char id=63   x=198   y=153   width=32    height=72    xoffset=1     yoffset=64    xadvance=34    page=0  chnl=15
char id=64   x=502   y=52    width=3     height=3     xoffset=-1    yoffset=-1    xadvance=144   page=0  chnl=15
char id=65   x=327   y=0     width=38    height=75    xoffset=1     yoffset=61    xadvance=41    page=0  chnl=15
char id=66   x=468   y=148   width=33    height=71    xoffset=3     yoffset=64    xadvance=38    page=0  chnl=15
char id=67   x=262   y=152   width=29    height=72    xoffset=1     yoffset=64    xadvance=30    page=0  chnl=15
char id=68   x=164   y=154   width=33    height=72    xoffset=3     yoffset=65    xadvance=38    page=0  chnl=15
char id=69   x=352   y=76    width=29    height=73    xoffset=1     yoffset=64    xadvance=32    page=0  chnl=15
char id=70   x=292   y=150   width=28    height=72    xoffset=2     yoffset=65    xadvance=32    page=0  chnl=15
char id=71   x=187   y=79    width=36    height=73    xoffset=0     yoffset=63    xadvance=36    page=0  chnl=15
char id=72   x=92    y=157   width=36    height=72    xoffset=1     yoffset=64    xadvance=38    page=0  chnl=15
char id=73   x=372   y=150   width=13    height=72    xoffset=1     yoffset=63    xadvance=17    page=0  chnl=15
char id=74   x=349   y=150   width=22    height=72    xoffset=1     yoffset=63    xadvance=24    page=0  chnl=15
char id=75   x=231   y=153   width=30    height=72    xoffset=1     yoffset=63    xadvance=31    page=0  chnl=15
char id=76   x=438   y=75    width=23    height=73    xoffset=1     yoffset=63    xadvance=25    page=0  chnl=15
char id=77   x=30    y=83    width=73    height=73    xoffset=0     yoffset=64    xadvance=74    page=0  chnl=15
char id=78   x=104   y=80    width=41    height=73    xoffset=1     yoffset=64    xadvance=43    page=0  chnl=15
char id=79   x=282   y=0     width=44    height=75    xoffset=1     yoffset=61    xadvance=46    page=0  chnl=15
char id=80   x=291   y=76    width=30    height=73    xoffset=1     yoffset=63    xadvance=32    page=0  chnl=15
char id=81   x=22    y=0     width=55    height=82    xoffset=1     yoffset=61    xadvance=47    page=0  chnl=15
char id=82   x=146   y=80    width=40    height=73    xoffset=0     yoffset=63    xadvance=39    page=0  chnl=15
char id=83   x=403   y=0     width=34    height=74    xoffset=0     yoffset=61    xadvance=35    page=0  chnl=15
char id=84   x=386   y=150   width=44    height=71    xoffset=1     yoffset=64    xadvance=45    page=0  chnl=15
char id=85   x=224   y=79    width=34    height=73    xoffset=1     yoffset=64    xadvance=36    page=0  chnl=15
char id=86   x=129   y=154   width=34    height=72    xoffset=0     yoffset=64    xadvance=35    page=0  chnl=15
char id=87   x=0     y=162   width=53    height=72    xoffset=1     yoffset=63    xadvance=55    page=0  chnl=15
char id=88   x=471   y=0     width=30    height=74    xoffset=1     yoffset=61    xadvance=32    page=0  chnl=15
char id=89   x=366   y=0     width=36    height=75    xoffset=1     yoffset=62    xadvance=38    page=0  chnl=15
char id=90   x=54    y=157   width=37    height=72    xoffset=2     yoffset=63    xadvance=39    page=0  chnl=15
char id=91   x=502   y=60    width=3     height=3     xoffset=-1    yoffset=-1    xadvance=144   page=0  chnl=15
char id=92   x=502   y=64    width=3     height=3     xoffset=-1    yoffset=-1    xadvance=144   page=0  chnl=15
char id=93   x=502   y=68    width=3     height=3     xoffset=-1    yoffset=-1    xadvance=144   page=0  chnl=15
char id=94   x=506   y=4     width=3     height=3     xoffset=-1    yoffset=-1    xadvance=144   page=0  chnl=15
char id=95   x=506   y=8     width=3     height=3     xoffset=-1    yoffset=-1    xadvance=144   page=0  chnl=15
char id=96   x=506   y=12    width=3     height=3     xoffset=-1    yoffset=-1    xadvance=144   page=0  chnl=15
char id=97   x=367   y=223   width=34    height=49    xoffset=0     yoffset=87    xadvance=35    page=0  chnl=15
char id=98   x=78    y=0     width=35    height=79    xoffset=2     yoffset=57    xadvance=39    page=0  chnl=15
char id=99   x=402   y=222   width=30    height=49    xoffset=0     yoffset=87    xadvance=31    page=0  chnl=15
char id=100  x=170   y=0     width=32    height=78    xoffset=0     yoffset=57    xadvance=33    page=0  chnl=15
char id=101  x=127   y=293   width=32    height=48    xoffset=1     yoffset=87    xadvance=34    page=0  chnl=15
char id=102  x=114   y=0     width=27    height=79    xoffset=1     yoffset=56    xadvance=30    page=0  chnl=15
char id=103  x=410   y=75    width=27    height=73    xoffset=1     yoffset=86    xadvance=29    page=0  chnl=15
char id=104  x=203   y=0     width=30    height=78    xoffset=2     yoffset=57    xadvance=34    page=0  chnl=15
char id=105  x=220   y=226   width=11    height=60    xoffset=1     yoffset=74    xadvance=14    page=0  chnl=15
char id=106  x=0     y=0     width=21    height=86    xoffset=-9    yoffset=75    xadvance=14    page=0  chnl=15
char id=107  x=142   y=0     width=27    height=79    xoffset=1     yoffset=57    xadvance=29    page=0  chnl=15
char id=108  x=269   y=0     width=12    height=77    xoffset=1     yoffset=58    xadvance=14    page=0  chnl=15
char id=109  x=52    y=306   width=40    height=48    xoffset=2     yoffset=87    xadvance=45    page=0  chnl=15
char id=110  x=461   y=221   width=26    height=49    xoffset=2     yoffset=86    xadvance=30    page=0  chnl=15
char id=111  x=323   y=223   width=43    height=49    xoffset=1     yoffset=87    xadvance=46    page=0  chnl=15
char id=112  x=438   y=0     width=32    height=74    xoffset=2     yoffset=84    xadvance=36    page=0  chnl=15
char id=113  x=322   y=76    width=29    height=73    xoffset=2     yoffset=85    xadvance=32    page=0  chnl=15
char id=114  x=27    y=306   width=24    height=49    xoffset=0     yoffset=86    xadvance=25    page=0  chnl=15
char id=115  x=433   y=221   width=27    height=49    xoffset=0     yoffset=87    xadvance=29    page=0  chnl=15
char id=116  x=152   y=227   width=22    height=62    xoffset=0     yoffset=72    xadvance=25    page=0  chnl=15
char id=117  x=192   y=288   width=30    height=48    xoffset=1     yoffset=88    xadvance=30    page=0  chnl=15
char id=118  x=160   y=290   width=31    height=48    xoffset=1     yoffset=87    xadvance=34    page=0  chnl=15
char id=119  x=275   y=225   width=47    height=49    xoffset=0     yoffset=87    xadvance=47    page=0  chnl=15
char id=120  x=0     y=307   width=26    height=49    xoffset=0     yoffset=87    xadvance=27    page=0  chnl=15
char id=121  x=120   y=230   width=31    height=62    xoffset=1     yoffset=86    xadvance=33    page=0  chnl=15
char id=122  x=93    y=301   width=33    height=48    xoffset=0     yoffset=87    xadvance=33    page=0  chnl=15
char id=166  x=506   y=16    width=3     height=3     xoffset=-1    yoffset=-1    xadvance=144   page=0  chnl=15
char id=178  x=506   y=20    width=3     height=3     xoffset=-1    yoffset=-1    xadvance=144   page=0  chnl=15
char id=179  x=506   y=24    width=3     height=3     xoffset=-1    yoffset=-1    xadvance=144   page=0  chnl=15
char id=185  x=506   y=28    width=3     height=3     xoffset=-1    yoffset=-1    xadvance=144   page=0  chnl=15
char id=188  x=506   y=32    width=3     height=3     xoffset=-1    yoffset=-1    xadvance=144   page=0  chnl=15
char id=189  x=506   y=36    width=3     height=3     xoffset=-1    yoffset=-1    xadvance=144   page=0  chnl=15
char id=190  x=506   y=40    width=3     height=3     xoffset=-1    yoffset=-1    xadvance=144   page=0  chnl=15
char id=215  x=506   y=44    width=3     height=3     xoffset=-1    yoffset=-1    xadvance=144   page=0  chnl=15
char id=8722 x=506   y=48    width=3     height=3     xoffset=-1    yoffset=-1    xadvance=144   page=0  chnl=15
char id=119155 x=506   y=52    width=3     height=3     xoffset=-1    yoffset=-1    xadvance=18    page=0  chnl=15
char id=119156 x=506   y=56    width=3     height=3     xoffset=-1    yoffset=-1    xadvance=18    page=0  chnl=15
char id=119157 x=506   y=60    width=3     height=3     xoffset=-1    yoffset=-1    xadvance=18    page=0  chnl=15
char id=119158 x=506   y=64    width=3     height=3     xoffset=-1    yoffset=-1    xadvance=18    page=0  chnl=15
char id=119159 x=506   y=68    width=3     height=3     xoffset=-1    yoffset=-1    xadvance=18    page=0  chnl=15
char id=119160 x=502   y=94    width=3     height=3     xoffset=-1    yoffset=-1    xadvance=18    page=0  chnl=15
char id=119161 x=506   y=94    width=3     height=3     xoffset=-1    yoffset=-1    xadvance=18    page=0  chnl=15
char id=119162 x=30    y=157   width=3     height=3     xoffset=-1    yoffset=-1    xadvance=18    page=0  chnl=15
char id=917505 x=34    y=157   width=3     height=3     xoffset=-1    yoffset=-1    xadvance=18    page=0  chnl=15
char id=917536 x=38    y=157   width=3     height=3     xoffset=-1    yoffset=-1    xadvance=18    page=0  chnl=15
char id=917537 x=42    y=157   width=3     height=3     xoffset=-1    yoffset=-1    xadvance=18    page=0  chnl=15
char id=917538 x=46    y=157   width=3     height=3     xoffset=-1    yoffset=-1    xadvance=18    page=0  chnl=15
char id=917539 x=50    y=157   width=3     height=3     xoffset=-1    yoffset=-1    xadvance=18    page=0  chnl=15
char id=917540 x=502   y=98    width=3     height=3     xoffset=-1    yoffset=-1    xadvance=18    page=0  chnl=15
char id=917541 x=506   y=98    width=3     height=3     xoffset=-1    yoffset=-1    xadvance=18    page=0  chnl=15
char id=917542 x=502   y=102   width=3     height=3     xoffset=-1    yoffset=-1    xadvance=18    page=0  chnl=15
char id=917543 x=506   y=102   width=3     height=3     xoffset=-1    yoffset=-1    xadvance=18    page=0  chnl=15
char id=917544 x=502   y=106   width=3     height=3     xoffset=-1    yoffset=-1    xadvance=18    page=0  chnl=15
char id=917545 x=506   y=106   width=3     height=3     xoffset=-1    yoffset=-1    xadvance=18    page=0  chnl=15
char id=917546 x=502   y=110   width=3     height=3     xoffset=-1    yoffset=-1    xadvance=18    page=0  chnl=15
char id=917547 x=506   y=110   width=3     height=3     xoffset=-1    yoffset=-1    xadvance=18    page=0  chnl=15
char id=917548 x=502   y=114   width=3     height=3     xoffset=-1    yoffset=-1    xadvance=18    page=0  chnl=15
char id=917549 x=506   y=114   width=3     height=3     xoffset=-1    yoffset=-1    xadvance=18    page=0  chnl=15
char id=917550 x=502   y=118   width=3     height=3     xoffset=-1    yoffset=-1    xadvance=18    page=0  chnl=15
char id=917551 x=506   y=118   width=3     height=3     xoffset=-1    yoffset=-1    xadvance=18    page=0  chnl=15
char id=917552 x=502   y=122   width=3     height=3     xoffset=-1    yoffset=-1    xadvance=18    page=0  chnl=15
char id=917553 x=506   y=122   width=3     height=3     xoffset=-1    yoffset=-1    xadvance=18    page=0  chnl=15
char id=917554 x=502   y=126   width=3     height=3     xoffset=-1    yoffset=-1    xadvance=18    page=0  chnl=15
char id=917555 x=506   y=126   width=3     height=3     xoffset=-1    yoffset=-1    xadvance=18    page=0  chnl=15
char id=917556 x=502   y=130   width=3     height=3     xoffset=-1    yoffset=-1    xadvance=18    page=0  chnl=15
char id=917557 x=506   y=130   width=3     height=3     xoffset=-1    yoffset=-1    xadvance=18    page=0  chnl=15
char id=917558 x=502   y=134   width=3     height=3     xoffset=-1    yoffset=-1    xadvance=18    page=0  chnl=15
char id=917559 x=506   y=134   width=3     height=3     xoffset=-1    yoffset=-1    xadvance=18    page=0  chnl=15
char id=917560 x=502   y=138   width=3     height=3     xoffset=-1    yoffset=-1    xadvance=18    page=0  chnl=15
char id=917561 x=506   y=138   width=3     height=3     xoffset=-1    yoffset=-1    xadvance=18    page=0  chnl=15
char id=917562 x=502   y=142   width=3     height=3     xoffset=-1    yoffset=-1    xadvance=18    page=0  chnl=15
char id=917563 x=506   y=142   width=3     height=3     xoffset=-1    yoffset=-1    xadvance=18    page=0  chnl=15
char id=917564 x=502   y=146   width=3     height=3     xoffset=-1    yoffset=-1    xadvance=18    page=0  chnl=15
char id=917565 x=506   y=146   width=3     height=3     xoffset=-1    yoffset=-1    xadvance=18    page=0  chnl=15
char id=917566 x=54    y=230   width=3     height=3     xoffset=-1    yoffset=-1    xadvance=18    page=0  chnl=15
char id=917567 x=58    y=230   width=3     height=3     xoffset=-1    yoffset=-1    xadvance=18    page=0  chnl=15
char id=917568 x=62    y=230   width=3     height=3     xoffset=-1    yoffset=-1    xadvance=18    page=0  chnl=15
char id=917569 x=66    y=230   width=3     height=3     xoffset=-1    yoffset=-1    xadvance=18    page=0  chnl=15
char id=917570 x=70    y=230   width=3     height=3     xoffset=-1    yoffset=-1    xadvance=18    page=0  chnl=15
char id=917571 x=74    y=230   width=3     height=3     xoffset=-1    yoffset=-1    xadvance=18    page=0  chnl=15
char id=917572 x=502   y=150   width=3     height=3     xoffset=-1    yoffset=-1    xadvance=18    page=0  chnl=15
char id=917573 x=502   y=154   width=3     height=3     xoffset=-1    yoffset=-1    xadvance=18    page=0  chnl=15
char id=917574 x=502   y=158   width=3     height=3     xoffset=-1    yoffset=-1    xadvance=18    page=0  chnl=15
char id=917575 x=502   y=162   width=3     height=3     xoffset=-1    yoffset=-1    xadvance=18    page=0  chnl=15
char id=917576 x=502   y=166   width=3     height=3     xoffset=-1    yoffset=-1    xadvance=18    page=0  chnl=15
char id=917577 x=502   y=170   width=3     height=3     xoffset=-1    yoffset=-1    xadvance=18    page=0  chnl=15
char id=917578 x=502   y=174   width=3     height=3     xoffset=-1    yoffset=-1    xadvance=18    page=0  chnl=15
char id=917579 x=502   y=178   width=3     height=3     xoffset=-1    yoffset=-1    xadvance=18    page=0  chnl=15
char id=917580 x=502   y=182   width=3     height=3     xoffset=-1    yoffset=-1    xadvance=18    page=0  chnl=15
char id=917581 x=502   y=186   width=3     height=3     xoffset=-1    yoffset=-1    xadvance=18    page=0  chnl=15
char id=917582 x=502   y=190   width=3     height=3     xoffset=-1    yoffset=-1    xadvance=18    page=0  chnl=15
char id=917583 x=502   y=194   width=3     height=3     xoffset=-1    yoffset=-1    xadvance=18    page=0  chnl=15
char id=917584 x=502   y=198   width=3     height=3     xoffset=-1    yoffset=-1    xadvance=18    page=0  chnl=15
char id=917585 x=502   y=202   width=3     height=3     xoffset=-1    yoffset=-1    xadvance=18    page=0  chnl=15
char id=917586 x=502   y=206   width=3     height=3     xoffset=-1    yoffset=-1    xadvance=18    page=0  chnl=15
char id=917587 x=502   y=210   width=3     height=3     xoffset=-1    yoffset=-1    xadvance=18    page=0  chnl=15
char id=917588 x=502   y=214   width=3     height=3     xoffset=-1    yoffset=-1    xadvance=18    page=0  chnl=15
char id=917589 x=246   y=282   width=3     height=3     xoffset=-1    yoffset=-1    xadvance=18    page=0  chnl=15
char id=917590 x=250   y=282   width=3     height=3     xoffset=-1    yoffset=-1    xadvance=18    page=0  chnl=15
char id=917591 x=254   y=282   width=3     height=3     xoffset=-1    yoffset=-1    xadvance=18    page=0  chnl=15
char id=917592 x=258   y=282   width=3     height=3     xoffset=-1    yoffset=-1    xadvance=18    page=0  chnl=15
char id=917593 x=262   y=282   width=3     height=3     xoffset=-1    yoffset=-1    xadvance=18    page=0  chnl=15
char id=917594 x=266   y=282   width=3     height=3     xoffset=-1    yoffset=-1    xadvance=18    page=0  chnl=15
char id=917595 x=270   y=282   width=3     height=3     xoffset=-1    yoffset=-1    xadvance=18    page=0  chnl=15
char id=917596 x=274   y=282   width=3     height=3     xoffset=-1    yoffset=-1    xadvance=18    page=0  chnl=15
char id=917597 x=278   y=275   width=3     height=3     xoffset=-1    yoffset=-1    xadvance=18    page=0  chnl=15
char id=917598 x=282   y=275   width=3     height=3     xoffset=-1    yoffset=-1    xadvance=18    page=0  chnl=15
char id=917599 x=286   y=275   width=3     height=3     xoffset=-1    yoffset=-1    xadvance=18    page=0  chnl=15
char id=917600 x=290   y=275   width=3     height=3     xoffset=-1    yoffset=-1    xadvance=18    page=0  chnl=15
char id=917601 x=294   y=275   width=3     height=3     xoffset=-1    yoffset=-1    xadvance=18    page=0  chnl=15
char id=917602 x=298   y=275   width=3     height=3     xoffset=-1    yoffset=-1    xadvance=18    page=0  chnl=15
char id=917603 x=302   y=275   width=3     height=3     xoffset=-1    yoffset=-1    xadvance=18    page=0  chnl=15
char id=917604 x=306   y=275   width=3     height=3     xoffset=-1    yoffset=-1    xadvance=18    page=0  chnl=15
char id=917605 x=310   y=275   width=3     height=3     xoffset=-1    yoffset=-1    xadvance=18    page=0  chnl=15
char id=917606 x=314   y=275   width=3     height=3     xoffset=-1    yoffset=-1    xadvance=18    page=0  chnl=15
char id=917607 x=318   y=275   width=3     height=3     xoffset=-1    yoffset=-1    xadvance=18    page=0  chnl=15
char id=917608 x=322   y=275   width=3     height=3     xoffset=-1    yoffset=-1    xadvance=18    page=0  chnl=15
char id=917609 x=326   y=273   width=3     height=3     xoffset=-1    yoffset=-1    xadvance=18    page=0  chnl=15
char id=917610 x=330   y=273   width=3     height=3     xoffset=-1    yoffset=-1    xadvance=18    page=0  chnl=15
char id=917611 x=334   y=273   width=3     height=3     xoffset=-1    yoffset=-1    xadvance=18    page=0  chnl=15
char id=917612 x=338   y=273   width=3     height=3     xoffset=-1    yoffset=-1    xadvance=18    page=0  chnl=15
char id=917613 x=342   y=273   width=3     height=3     xoffset=-1    yoffset=-1    xadvance=18    page=0  chnl=15
char id=917614 x=346   y=273   width=3     height=3     xoffset=-1    yoffset=-1    xadvance=18    page=0  chnl=15
char id=917615 x=350   y=273   width=3     height=3     xoffset=-1    yoffset=-1    xadvance=18    page=0  chnl=15
char id=917616 x=354   y=273   width=3     height=3     xoffset=-1    yoffset=-1    xadvance=18    page=0  chnl=15
char id=917617 x=358   y=273   width=3     height=3     xoffset=-1    yoffset=-1    xadvance=18    page=0  chnl=15
char id=917618 x=362   y=273   width=3     height=3     xoffset=-1    yoffset=-1    xadvance=18    page=0  chnl=15
char id=917619 x=366   y=273   width=3     height=3     xoffset=-1    yoffset=-1    xadvance=18    page=0  chnl=15
char id=917620 x=370   y=273   width=3     height=3     xoffset=-1    yoffset=-1    xadvance=18    page=0  chnl=15
char id=917621 x=374   y=273   width=3     height=3     xoffset=-1    yoffset=-1    xadvance=18    page=0  chnl=15
char id=917622 x=378   y=273   width=3     height=3     xoffset=-1    yoffset=-1    xadvance=18    page=0  chnl=15
char id=917623 x=382   y=273   width=3     height=3     xoffset=-1    yoffset=-1    xadvance=18    page=0  chnl=15
char id=917624 x=386   y=273   width=3     height=3     xoffset=-1    yoffset=-1    xadvance=18    page=0  chnl=15
char id=917625 x=390   y=273   width=3     height=3     xoffset=-1    yoffset=-1    xadvance=18    page=0  chnl=15
char id=917626 x=394   y=273   width=3     height=3     xoffset=-1    yoffset=-1    xadvance=18    page=0  chnl=15
char id=917627 x=398   y=273   width=3     height=3     xoffset=-1    yoffset=-1    xadvance=18    page=0  chnl=15
char id=917628 x=402   y=272   width=3     height=3     xoffset=-1    yoffset=-1    xadvance=18    page=0  chnl=15
char id=917629 x=406   y=272   width=3     height=3     xoffset=-1    yoffset=-1    xadvance=18    page=0  chnl=15
char id=917630 x=410   y=272   width=3     height=3     xoffset=-1    yoffset=-1    xadvance=18    page=0  chnl=15
char id=917631 x=414   y=272   width=3     height=3     xoffset=-1    yoffset=-1    xadvance=18    page=0  chnl=15
