info face="Eraser" size=144 bold=0 italic=0 charset="" unicode=1 stretchH=100 smooth=1 aa=1 padding=0,0,0,0 spacing=1,1 outline=0
common lineHeight=144 base=121 scaleW=512 scaleH=512 pages=3 packed=0 alphaChnl=1 redChnl=0 greenChnl=0 blueChnl=0
page id=0 file="eraser144_0.png"
page id=1 file="eraser144_1.png"
page id=2 file="eraser144_2.png"
chars count=100
char id=32   x=494   y=0     width=0     height=1     xoffset=0     yoffset=143   xadvance=50    page=0  chnl=15
char id=33   x=478   y=321   width=29    height=96    xoffset=5     yoffset=22    xadvance=39    page=0  chnl=15
char id=34   x=111   y=459   width=41    height=35    xoffset=3     yoffset=22    xadvance=45    page=0  chnl=15
char id=35   x=442   y=0     width=69    height=99    xoffset=2     yoffset=22    xadvance=74    page=1  chnl=15
char id=36   x=409   y=100   width=57    height=99    xoffset=2     yoffset=35    xadvance=61    page=2  chnl=15
char id=37   x=0     y=0     width=76    height=99    xoffset=2     yoffset=22    xadvance=80    page=2  chnl=15
char id=38   x=0     y=0     width=66    height=138   xoffset=2     yoffset=6     xadvance=71    page=0  chnl=15
char id=39   x=153   y=459   width=22    height=33    xoffset=3     yoffset=22    xadvance=30    page=0  chnl=15
char id=40   x=464   y=110   width=45    height=99    xoffset=3     yoffset=22    xadvance=44    page=0  chnl=15
char id=41   x=0     y=200   width=47    height=98    xoffset=0     yoffset=22    xadvance=48    page=2  chnl=15
char id=42   x=188   y=338   width=82    height=101   xoffset=3     yoffset=22    xadvance=85    page=0  chnl=15
char id=43   x=321   y=297   width=67    height=59    xoffset=3     yoffset=42    xadvance=71    page=2  chnl=15
char id=44   x=487   y=100   width=22    height=31    xoffset=3     yoffset=100   xadvance=30    page=1  chnl=15
char id=45   x=396   y=314   width=67    height=20    xoffset=3     yoffset=62    xadvance=71    page=2  chnl=15
char id=46   x=487   y=132   width=22    height=24    xoffset=3     yoffset=97    xadvance=30    page=1  chnl=15
char id=47   x=270   y=220   width=81    height=104   xoffset=-1    yoffset=17    xadvance=80    page=0  chnl=15
char id=48   x=271   y=426   width=80    height=84    xoffset=1     yoffset=27    xadvance=84    page=0  chnl=15
char id=49   x=67    y=0     width=28    height=121   xoffset=7     yoffset=0     xadvance=40    page=0  chnl=15
char id=50   x=271   y=325   width=75    height=100   xoffset=2     yoffset=28    xadvance=81    page=0  chnl=15
char id=51   x=425   y=218   width=75    height=102   xoffset=3     yoffset=19    xadvance=81    page=0  chnl=15
char id=52   x=164   y=298   width=78    height=91    xoffset=1     yoffset=30    xadvance=83    page=2  chnl=15
char id=53   x=382   y=200   width=79    height=92    xoffset=0     yoffset=22    xadvance=80    page=2  chnl=15
char id=54   x=301   y=100   width=93    height=99    xoffset=0     yoffset=22    xadvance=95    page=1  chnl=15
char id=55   x=347   y=100   width=61    height=99    xoffset=2     yoffset=22    xadvance=64    page=2  chnl=15
char id=56   x=0     y=400   width=80    height=99    xoffset=1     yoffset=22    xadvance=82    page=1  chnl=15
char id=57   x=0     y=139   width=75    height=109   xoffset=0     yoffset=24    xadvance=78    page=0  chnl=15
char id=58   x=211   y=440   width=22    height=57    xoffset=3     yoffset=63    xadvance=30    page=0  chnl=15
char id=59   x=188   y=440   width=22    height=66    xoffset=3     yoffset=63    xadvance=30    page=0  chnl=15
char id=61   x=0     y=459   width=67    height=41    xoffset=3     yoffset=62    xadvance=71    page=0  chnl=15
char id=63   x=467   y=100   width=42    height=91    xoffset=2     yoffset=30    xadvance=47    page=2  chnl=15
char id=64   x=77    y=0     width=75    height=99    xoffset=2     yoffset=22    xadvance=80    page=2  chnl=15
char id=65   x=125   y=231   width=77    height=106   xoffset=3     yoffset=23    xadvance=84    page=0  chnl=15
char id=66   x=444   y=200   width=66    height=99    xoffset=3     yoffset=22    xadvance=71    page=1  chnl=15
char id=67   x=101   y=100   width=100   height=99    xoffset=0     yoffset=22    xadvance=101   page=1  chnl=15
char id=68   x=0     y=300   width=87    height=99    xoffset=-2    yoffset=22    xadvance=85    page=1  chnl=15
char id=69   x=320   y=400   width=78    height=99    xoffset=2     yoffset=22    xadvance=84    page=1  chnl=15
char id=70   x=134   y=200   width=85    height=97    xoffset=0     yoffset=24    xadvance=85    page=2  chnl=15
char id=71   x=88    y=300   width=87    height=99    xoffset=4     yoffset=22    xadvance=89    page=1  chnl=15
char id=72   x=161   y=400   width=79    height=99    xoffset=3     yoffset=22    xadvance=83    page=1  chnl=15
char id=73   x=160   y=0     width=33    height=110   xoffset=4     yoffset=17    xadvance=40    page=0  chnl=15
char id=74   x=282   y=100   width=64    height=99    xoffset=1     yoffset=22    xadvance=69    page=2  chnl=15
char id=75   x=376   y=0     width=90    height=109   xoffset=2     yoffset=12    xadvance=92    page=0  chnl=15
char id=76   x=428   y=425   width=68    height=79    xoffset=2     yoffset=32    xadvance=71    page=0  chnl=15
char id=77   x=0     y=0     width=130   height=99    xoffset=3     yoffset=22    xadvance=135   page=1  chnl=15
char id=78   x=285   y=0     width=90    height=109   xoffset=2     yoffset=17    xadvance=95    page=0  chnl=15
char id=79   x=348   y=300   width=81    height=99    xoffset=2     yoffset=22    xadvance=84    page=1  chnl=15
char id=80   x=0     y=357   width=93    height=101   xoffset=2     yoffset=21    xadvance=97    page=0  chnl=15
char id=81   x=276   y=110   width=124   height=107   xoffset=1     yoffset=24    xadvance=122   page=0  chnl=15
char id=82   x=202   y=100   width=98    height=99    xoffset=1     yoffset=22    xadvance=101   page=1  chnl=15
char id=83   x=430   y=300   width=80    height=99    xoffset=0     yoffset=22    xadvance=80    page=1  chnl=15
char id=84   x=220   y=200   width=86    height=96    xoffset=1     yoffset=22    xadvance=88    page=2  chnl=15
char id=85   x=0     y=200   width=91    height=99    xoffset=1     yoffset=22    xadvance=96    page=1  chnl=15
char id=86   x=236   y=0     width=102   height=99    xoffset=0     yoffset=22    xadvance=104   page=1  chnl=15
char id=87   x=76    y=122   width=99    height=108   xoffset=4     yoffset=24    xadvance=104   page=0  chnl=15
char id=88   x=0     y=100   width=71    height=99    xoffset=2     yoffset=22    xadvance=77    page=2  chnl=15
char id=89   x=307   y=200   width=74    height=96    xoffset=1     yoffset=25    xadvance=76    page=2  chnl=15
char id=90   x=92    y=200   width=87    height=99    xoffset=1     yoffset=22    xadvance=92    page=1  chnl=15
char id=94   x=375   y=0     width=71    height=99    xoffset=0     yoffset=22    xadvance=74    page=2  chnl=15
char id=97   x=153   y=0     width=74    height=99    xoffset=2     yoffset=22    xadvance=78    page=2  chnl=15
char id=98   x=215   y=100   width=66    height=99    xoffset=3     yoffset=22    xadvance=71    page=2  chnl=15
char id=99   x=0     y=100   width=100   height=99    xoffset=0     yoffset=22    xadvance=101   page=1  chnl=15
char id=100  x=180   y=200   width=87    height=99    xoffset=-2    yoffset=22    xadvance=85    page=1  chnl=15
char id=101  x=263   y=300   width=84    height=99    xoffset=-3    yoffset=22    xadvance=82    page=1  chnl=15
char id=102  x=48    y=200   width=85    height=97    xoffset=0     yoffset=24    xadvance=85    page=2  chnl=15
char id=103  x=268   y=200   width=87    height=99    xoffset=4     yoffset=22    xadvance=89    page=1  chnl=15
char id=104  x=81    y=400   width=79    height=99    xoffset=3     yoffset=22    xadvance=83    page=1  chnl=15
char id=105  x=467   y=0     width=26    height=100   xoffset=2     yoffset=18    xadvance=31    page=0  chnl=15
char id=106  x=447   y=0     width=64    height=99    xoffset=1     yoffset=22    xadvance=69    page=2  chnl=15
char id=107  x=194   y=0     width=90    height=109   xoffset=2     yoffset=12    xadvance=92    page=0  chnl=15
char id=108  x=203   y=220   width=66    height=106   xoffset=3     yoffset=20    xadvance=71    page=0  chnl=15
char id=109  x=347   y=325   width=130   height=99    xoffset=3     yoffset=22    xadvance=135   page=0  chnl=15
char id=110  x=228   y=0     width=73    height=99    xoffset=1     yoffset=22    xadvance=79    page=2  chnl=15
char id=111  x=352   y=425   width=75    height=79    xoffset=2     yoffset=31    xadvance=80    page=0  chnl=15
char id=112  x=94    y=357   width=93    height=101   xoffset=2     yoffset=21    xadvance=97    page=0  chnl=15
char id=113  x=0     y=249   width=124   height=107   xoffset=1     yoffset=24    xadvance=122   page=0  chnl=15
char id=114  x=352   y=218   width=72    height=104   xoffset=0     yoffset=26    xadvance=74    page=0  chnl=15
char id=115  x=399   y=400   width=76    height=99    xoffset=1     yoffset=22    xadvance=78    page=1  chnl=15
char id=116  x=176   y=300   width=86    height=99    xoffset=4     yoffset=22    xadvance=94    page=1  chnl=15
char id=117  x=395   y=100   width=91    height=99    xoffset=1     yoffset=22    xadvance=96    page=1  chnl=15
char id=118  x=339   y=0     width=102   height=99    xoffset=0     yoffset=22    xadvance=104   page=1  chnl=15
char id=119  x=176   y=111   width=99    height=108   xoffset=4     yoffset=24    xadvance=104   page=0  chnl=15
char id=120  x=72    y=100   width=71    height=99    xoffset=2     yoffset=22    xadvance=77    page=2  chnl=15
char id=121  x=96    y=0     width=63    height=111   xoffset=2     yoffset=25    xadvance=67    page=0  chnl=15
char id=122  x=356   y=200   width=87    height=99    xoffset=1     yoffset=22    xadvance=92    page=1  chnl=15
char id=123  x=0     y=299   width=163   height=93    xoffset=7     yoffset=28    xadvance=178   page=2  chnl=15
char id=160  x=495   y=0     width=0     height=1     xoffset=0     yoffset=143   xadvance=50    page=0  chnl=15
char id=161  x=476   y=400   width=31    height=95    xoffset=3     yoffset=26    xadvance=38    page=1  chnl=15
char id=162  x=302   y=0     width=72    height=99    xoffset=2     yoffset=34    xadvance=76    page=2  chnl=15
char id=170  x=401   y=110   width=62    height=107   xoffset=2     yoffset=23    xadvance=66    page=0  chnl=15
char id=173  x=396   y=335   width=67    height=20    xoffset=3     yoffset=62    xadvance=71    page=2  chnl=15
char id=182  x=131   y=0     width=104   height=99    xoffset=0     yoffset=22    xadvance=106   page=1  chnl=15
char id=186  x=243   y=297   width=77    height=89    xoffset=2     yoffset=30    xadvance=83    page=2  chnl=15
char id=205  x=144   y=100   width=70    height=99    xoffset=3     yoffset=22    xadvance=76    page=2  chnl=15
char id=8211 x=321   y=357   width=74    height=20    xoffset=0     yoffset=62    xadvance=77    page=2  chnl=15
char id=8212 x=389   y=293   width=84    height=20    xoffset=0     yoffset=62    xadvance=89    page=2  chnl=15
char id=8216 x=234   y=440   width=22    height=33    xoffset=4     yoffset=22    xadvance=30    page=0  chnl=15
char id=8217 x=234   y=474   width=22    height=33    xoffset=3     yoffset=22    xadvance=30    page=0  chnl=15
char id=8220 x=68    y=459   width=42    height=36    xoffset=4     yoffset=22    xadvance=48    page=0  chnl=15
char id=8221 x=462   y=200   width=41    height=35    xoffset=3     yoffset=22    xadvance=45    page=2  chnl=15
char id=8250 x=241   y=400   width=78    height=99    xoffset=1     yoffset=22    xadvance=80    page=1  chnl=15
kernings count=4
kerning first=70  second=65  amount=-10 
kerning first=86  second=65  amount=-11 
kerning first=87  second=65  amount=-10 
kerning first=65  second=86  amount=-10 
