info face="Tw Cen MT" size=-144 bold=0 italic=0 charset="" unicode=1 stretchH=100 smooth=1 aa=1 padding=0,0,0,0 spacing=1,1 outline=1
common lineHeight=166 base=133 scaleW=512 scaleH=512 pages=7 packed=0 alphaChnl=1 redChnl=0 greenChnl=0 blueChnl=0
page id=0 file="twCen144_0.png"
page id=1 file="twCen144_1.png"
page id=2 file="twCen144_2.png"
page id=3 file="twCen144_3.png"
page id=4 file="twCen144_4.png"
page id=5 file="twCen144_5.png"
page id=6 file="twCen144_6.png"
chars count=399
char id=32   x=505   y=0     width=3     height=3     xoffset=-1    yoffset=-1    xadvance=40    page=0  chnl=15
char id=33   x=150   y=414   width=18    height=93    xoffset=6     yoffset=42    xadvance=32    page=0  chnl=15
char id=34   x=191   y=471   width=40    height=40    xoffset=5     yoffset=29    xadvance=51    page=2  chnl=15
char id=35   x=162   y=0     width=86    height=102   xoffset=4     yoffset=35    xadvance=96    page=3  chnl=15
char id=36   x=132   y=250   width=64    height=123   xoffset=8     yoffset=28    xadvance=79    page=1  chnl=15
char id=37   x=220   y=403   width=115   height=100   xoffset=2     yoffset=40    xadvance=120   page=0  chnl=15
char id=38   x=343   y=305   width=89    height=98    xoffset=4     yoffset=39    xadvance=96    page=3  chnl=15
char id=39   x=232   y=471   width=17    height=40    xoffset=4     yoffset=29    xadvance=27    page=2  chnl=15
char id=40   x=460   y=270   width=27    height=122   xoffset=6     yoffset=39    xadvance=39    page=0  chnl=15
char id=41   x=0     y=375   width=26    height=122   xoffset=5     yoffset=39    xadvance=39    page=1  chnl=15
char id=42   x=444   y=365   width=54    height=59    xoffset=4     yoffset=33    xadvance=63    page=6  chnl=15
char id=43   x=206   y=90    width=81    height=80    xoffset=8     yoffset=46    xadvance=96    page=6  chnl=15
char id=44   x=404   y=461   width=29    height=44    xoffset=0     yoffset=114   xadvance=32    page=5  chnl=15
char id=45   x=466   y=495   width=36    height=15    xoffset=6     yoffset=97    xadvance=48    page=1  chnl=15
char id=46   x=426   y=474   width=23    height=22    xoffset=4     yoffset=113   xadvance=32    page=4  chnl=15
char id=47   x=123   y=0     width=69    height=138   xoffset=2     yoffset=28    xadvance=72    page=0  chnl=15
char id=48   x=433   y=303   width=70    height=98    xoffset=4     yoffset=39    xadvance=79    page=3  chnl=15
char id=49   x=476   y=96    width=30    height=92    xoffset=17    yoffset=42    xadvance=79    page=4  chnl=15
char id=50   x=0     y=193   width=65    height=95    xoffset=5     yoffset=39    xadvance=79    page=4  chnl=15
char id=51   x=363   y=404   width=63    height=98    xoffset=7     yoffset=39    xadvance=79    page=3  chnl=15
char id=52   x=174   y=193   width=72    height=94    xoffset=0     yoffset=40    xadvance=79    page=4  chnl=15
char id=53   x=78    y=97    width=67    height=95    xoffset=2     yoffset=42    xadvance=79    page=4  chnl=15
char id=54   x=325   y=205   width=68    height=99    xoffset=5     yoffset=38    xadvance=79    page=3  chnl=15
char id=55   x=73    y=414   width=76    height=97    xoffset=2     yoffset=42    xadvance=79    page=0  chnl=15
char id=56   x=298   y=409   width=64    height=98    xoffset=7     yoffset=39    xadvance=79    page=3  chnl=15
char id=57   x=391   y=102   width=68    height=101   xoffset=5     yoffset=38    xadvance=79    page=3  chnl=15
char id=58   x=477   y=453   width=22    height=51    xoffset=4     yoffset=83    xadvance=32    page=2  chnl=15
char id=59   x=0     y=178   width=30    height=76    xoffset=3     yoffset=82    xadvance=39    page=6  chnl=15
char id=60   x=326   y=90    width=79    height=76    xoffset=8     yoffset=49    xadvance=96    page=6  chnl=15
char id=61   x=324   y=461   width=79    height=45    xoffset=8     yoffset=64    xadvance=96    page=5  chnl=15
char id=62   x=406   y=90    width=79    height=76    xoffset=8     yoffset=49    xadvance=96    page=6  chnl=15
char id=63   x=460   y=98    width=50    height=96    xoffset=1     yoffset=39    xadvance=55    page=3  chnl=15
char id=64   x=263   y=0     width=136   height=137   xoffset=6     yoffset=27    xadvance=146   page=0  chnl=15
char id=65   x=315   y=0     width=87    height=95    xoffset=-1    yoffset=39    xadvance=87    page=4  chnl=15
char id=66   x=383   y=186   width=56    height=92    xoffset=9     yoffset=42    xadvance=72    page=5  chnl=15
char id=67   x=81    y=411   width=80    height=98    xoffset=3     yoffset=39    xadvance=87    page=3  chnl=15
char id=68   x=81    y=94    width=76    height=92    xoffset=7     yoffset=42    xadvance=87    page=5  chnl=15
char id=69   x=105   y=280   width=51    height=92    xoffset=7     yoffset=42    xadvance=63    page=5  chnl=15
char id=70   x=53    y=280   width=51    height=92    xoffset=7     yoffset=42    xadvance=63    page=5  chnl=15
char id=71   x=141   y=312   width=100   height=98    xoffset=5     yoffset=39    xadvance=111   page=3  chnl=15
char id=72   x=379   y=93    width=71    height=92    xoffset=7     yoffset=42    xadvance=87    page=5  chnl=15
char id=73   x=489   y=0     width=15    height=92    xoffset=7     yoffset=42    xadvance=32    page=4  chnl=15
char id=74   x=185   y=0     width=40    height=96    xoffset=3     yoffset=42    xadvance=55    page=4  chnl=15
char id=75   x=0     y=187   width=70    height=92    xoffset=7     yoffset=42    xadvance=79    page=5  chnl=15
char id=76   x=208   y=279   width=44    height=92    xoffset=9     yoffset=42    xadvance=55    page=5  chnl=15
char id=77   x=394   y=204   width=108   height=98    xoffset=1     yoffset=39    xadvance=111   page=3  chnl=15
char id=78   x=0     y=411   width=80    height=98    xoffset=7     yoffset=39    xadvance=96    page=3  chnl=15
char id=79   x=242   y=310   width=100   height=98    xoffset=5     yoffset=39    xadvance=111   page=3  chnl=15
char id=80   x=326   y=186   width=56    height=92    xoffset=9     yoffset=42    xadvance=72    page=5  chnl=15
char id=81   x=150   y=209   width=100   height=100   xoffset=5     yoffset=39    xadvance=111   page=3  chnl=15
char id=82   x=268   y=186   width=57    height=92    xoffset=9     yoffset=42    xadvance=72    page=5  chnl=15
char id=83   x=232   y=411   width=65    height=98    xoffset=2     yoffset=39    xadvance=72    page=3  chnl=15
char id=84   x=451   y=93    width=59    height=92    xoffset=2     yoffset=42    xadvance=63    page=5  chnl=15
char id=85   x=0     y=416   width=72    height=95    xoffset=7     yoffset=42    xadvance=87    page=0  chnl=15
char id=86   x=403   y=0     width=85    height=95    xoffset=0     yoffset=42    xadvance=87    page=4  chnl=15
char id=87   x=0     y=312   width=140   height=98    xoffset=1     yoffset=39    xadvance=144   page=3  chnl=15
char id=88   x=307   y=93    width=71    height=92    xoffset=3     yoffset=42    xadvance=79    page=5  chnl=15
char id=89   x=233   y=93    width=73    height=92    xoffset=2     yoffset=42    xadvance=79    page=5  chnl=15
char id=90   x=71    y=187   width=65    height=92    xoffset=3     yoffset=42    xadvance=72    page=5  chnl=15
char id=91   x=478   y=122   width=29    height=116   xoffset=7     yoffset=41    xadvance=39    page=2  chnl=15
char id=92   x=193   y=0     width=69    height=138   xoffset=3     yoffset=28    xadvance=72    page=0  chnl=15
char id=93   x=473   y=242   width=29    height=116   xoffset=1     yoffset=41    xadvance=39    page=2  chnl=15
char id=94   x=380   y=371   width=63    height=59    xoffset=2     yoffset=27    xadvance=68    page=6  chnl=15
char id=95   x=125   y=497   width=76    height=10    xoffset=-2    yoffset=142   xadvance=72    page=1  chnl=15
char id=96   x=176   y=477   width=29    height=23    xoffset=4     yoffset=43    xadvance=48    page=4  chnl=15
char id=97   x=365   y=238   width=64    height=64    xoffset=5     yoffset=72    xadvance=79    page=6  chnl=15
char id=98   x=410   y=96    width=65    height=95    xoffset=8     yoffset=41    xadvance=79    page=4  chnl=15
char id=99   x=430   y=237   width=50    height=64    xoffset=2     yoffset=72    xadvance=55    page=6  chnl=15
char id=100  x=66    y=193   width=64    height=95    xoffset=5     yoffset=41    xadvance=79    page=4  chnl=15
char id=101  x=299   y=243   width=65    height=64    xoffset=3     yoffset=72    xadvance=72    page=6  chnl=15
char id=102  x=131   y=193   width=42    height=95    xoffset=2     yoffset=39    xadvance=48    page=4  chnl=15
char id=103  x=132   y=0     width=64    height=89    xoffset=5     yoffset=72    xadvance=79    page=6  chnl=15
char id=104  x=233   y=382   width=53    height=93    xoffset=4     yoffset=41    xadvance=63    page=4  chnl=15
char id=105  x=435   y=0     width=22    height=89    xoffset=5     yoffset=45    xadvance=32    page=6  chnl=15
char id=106  x=486   y=246   width=22    height=115   xoffset=5     yoffset=46    xadvance=32    page=1  chnl=15
char id=107  x=122   y=383   width=56    height=93    xoffset=5     yoffset=41    xadvance=63    page=4  chnl=15
char id=108  x=336   y=402   width=15    height=93    xoffset=8     yoffset=41    xadvance=32    page=0  chnl=15
char id=109  x=357   y=308   width=85    height=62    xoffset=4     yoffset=72    xadvance=96    page=6  chnl=15
char id=110  x=443   y=302   width=53    height=62    xoffset=4     yoffset=72    xadvance=63    page=6  chnl=15
char id=111  x=232   y=248   width=66    height=64    xoffset=2     yoffset=72    xadvance=72    page=6  chnl=15
char id=112  x=66    y=0     width=65    height=89    xoffset=8     yoffset=72    xadvance=79    page=6  chnl=15
char id=113  x=197   y=0     width=64    height=89    xoffset=5     yoffset=72    xadvance=79    page=6  chnl=15
char id=114  x=100   y=385   width=38    height=62    xoffset=8     yoffset=72    xadvance=48    page=6  chnl=15
char id=115  x=0     y=325   width=42    height=64    xoffset=2     yoffset=72    xadvance=48    page=6  chnl=15
char id=116  x=288   y=90    width=37    height=77    xoffset=0     yoffset=57    xadvance=39    page=6  chnl=15
char id=117  x=0     y=390   width=53    height=62    xoffset=4     yoffset=74    xadvance=63    page=6  chnl=15
char id=118  x=249   y=313   width=62    height=63    xoffset=0     yoffset=74    xadvance=63    page=6  chnl=15
char id=119  x=157   y=316   width=91    height=63    xoffset=2     yoffset=72    xadvance=96    page=6  chnl=15
char id=120  x=255   y=377   width=66    height=60    xoffset=2     yoffset=74    xadvance=72    page=6  chnl=15
char id=121  x=0     y=90    width=66    height=87    xoffset=2     yoffset=74    xadvance=72    page=6  chnl=15
char id=122  x=322   y=372   width=57    height=60    xoffset=2     yoffset=74    xadvance=63    page=6  chnl=15
char id=123  x=170   y=139   width=44    height=137   xoffset=2     yoffset=30    xadvance=48    page=0  chnl=15
char id=124  x=488   y=262   width=13    height=121   xoffset=31    yoffset=32    xadvance=76    page=0  chnl=15
char id=125  x=215   y=139   width=44    height=137   xoffset=1     yoffset=30    xadvance=48    page=0  chnl=15
char id=126  x=0     y=477   width=78    height=24    xoffset=7     yoffset=72    xadvance=94    page=4  chnl=15
char id=160  x=501   y=0     width=3     height=3     xoffset=-1    yoffset=-1    xadvance=40    page=0  chnl=15
char id=161  x=493   y=402   width=18    height=92    xoffset=5     yoffset=54    xadvance=32    page=3  chnl=15
char id=162  x=67    y=364   width=55    height=112   xoffset=3     yoffset=48    xadvance=63    page=2  chnl=15
char id=163  x=251   y=205   width=73    height=99    xoffset=3     yoffset=38    xadvance=79    page=3  chnl=15
char id=164  x=186   y=176   width=71    height=71    xoffset=11    yoffset=51    xadvance=96    page=6  chnl=15
char id=165  x=158   y=93    width=74    height=92    xoffset=3     yoffset=42    xadvance=79    page=5  chnl=15
char id=166  x=497   y=138   width=13    height=121   xoffset=31    yoffset=32    xadvance=76    page=0  chnl=15
char id=167  x=452   y=0     width=55    height=122   xoffset=3     yoffset=39    xadvance=63    page=1  chnl=15
char id=168  x=87    y=465   width=46    height=18    xoffset=0     yoffset=47    xadvance=48    page=5  chnl=15
char id=169  x=259   y=361   width=108   height=108   xoffset=-1    yoffset=27    xadvance=106   page=2  chnl=15
char id=170  x=0     y=465   width=43    height=43    xoffset=3     yoffset=39    xadvance=53    page=5  chnl=15
char id=171  x=325   y=168   width=64    height=69    xoffset=4     yoffset=60    xadvance=72    page=6  chnl=15
char id=172  x=243   y=464   width=80    height=47    xoffset=7     yoffset=62    xadvance=96    page=5  chnl=15
char id=173  x=429   y=495   width=36    height=15    xoffset=6     yoffset=97    xadvance=48    page=1  chnl=15
char id=174  x=368   y=361   width=108   height=108   xoffset=-1    yoffset=27    xadvance=106   page=2  chnl=15
char id=175  x=48    y=497   width=76    height=10    xoffset=-2    yoffset=24    xadvance=72    page=1  chnl=15
char id=176  x=44    y=465   width=42    height=42    xoffset=7     yoffset=27    xadvance=58    page=5  chnl=15
char id=177  x=249   y=0     width=80    height=102   xoffset=7     yoffset=35    xadvance=96    page=3  chnl=15
char id=178  x=54    y=385   width=45    height=62    xoffset=4     yoffset=39    xadvance=55    page=6  chnl=15
char id=179  x=312   y=308   width=44    height=63    xoffset=5     yoffset=39    xadvance=55    page=6  chnl=15
char id=180  x=206   y=477   width=29    height=23    xoffset=14    yoffset=43    xadvance=48    page=4  chnl=15
char id=181  x=99    y=0     width=62    height=106   xoffset=8     yoffset=57    xadvance=80    page=3  chnl=15
char id=182  x=260   y=139   width=80    height=134   xoffset=-1    yoffset=29    xadvance=77    page=0  chnl=15
char id=183  x=166   y=473   width=23    height=23    xoffset=4     yoffset=77    xadvance=32    page=2  chnl=15
char id=184  x=67    y=477   width=34    height=34    xoffset=6     yoffset=130   xadvance=48    page=2  chnl=15
char id=185  x=486   y=88    width=23    height=61    xoffset=11    yoffset=39    xadvance=55    page=6  chnl=15
char id=186  x=464   y=461   width=44    height=43    xoffset=1     yoffset=39    xadvance=47    page=5  chnl=15
char id=187  x=390   y=167   width=64    height=69    xoffset=3     yoffset=60    xadvance=72    page=6  chnl=15
char id=188  x=0     y=109   width=112   height=101   xoffset=9     yoffset=39    xadvance=130   page=3  chnl=15
char id=189  x=113   y=107   width=112   height=101   xoffset=9     yoffset=39    xadvance=130   page=3  chnl=15
char id=190  x=330   y=0     width=118   height=101   xoffset=6     yoffset=39    xadvance=130   page=3  chnl=15
char id=191  x=449   y=0     width=49    height=97    xoffset=2     yoffset=52    xadvance=55    page=3  chnl=15
char id=192  x=27    y=375   width=87    height=121   xoffset=-1    yoffset=13    xadvance=87    page=1  chnl=15
char id=193  x=115   y=375   width=87    height=121   xoffset=-1    yoffset=13    xadvance=87    page=1  chnl=15
char id=194  x=203   y=373   width=87    height=121   xoffset=-1    yoffset=13    xadvance=87    page=1  chnl=15
char id=195  x=0     y=244   width=87    height=119   xoffset=-1    yoffset=15    xadvance=87    page=2  chnl=15
char id=196  x=155   y=243   width=87    height=117   xoffset=-1    yoffset=17    xadvance=87    page=2  chnl=15
char id=197  x=202   y=0     width=87    height=124   xoffset=-1    yoffset=10    xadvance=87    page=1  chnl=15
char id=198  x=84    y=0     width=108   height=92    xoffset=0     yoffset=42    xadvance=111   page=5  chnl=15
char id=199  x=177   y=277   width=80    height=125   xoffset=3     yoffset=39    xadvance=87    page=0  chnl=15
char id=200  x=398   y=0     width=51    height=121   xoffset=7     yoffset=13    xadvance=63    page=2  chnl=15
char id=201  x=294   y=0     width=51    height=121   xoffset=7     yoffset=13    xadvance=63    page=2  chnl=15
char id=202  x=346   y=0     width=51    height=121   xoffset=7     yoffset=13    xadvance=63    page=2  chnl=15
char id=203  x=383   y=243   width=51    height=117   xoffset=7     yoffset=17    xadvance=63    page=2  chnl=15
char id=204  x=122   y=122   width=28    height=121   xoffset=-3    yoffset=13    xadvance=32    page=2  chnl=15
char id=205  x=92    y=122   width=29    height=121   xoffset=6     yoffset=13    xadvance=32    page=2  chnl=15
char id=206  x=0     y=122   width=46    height=121   xoffset=-8    yoffset=13    xadvance=32    page=2  chnl=15
char id=207  x=460   y=393   width=45    height=117   xoffset=-7    yoffset=17    xadvance=32    page=0  chnl=15
char id=208  x=389   y=0     width=84    height=92    xoffset=0     yoffset=42    xadvance=87    page=5  chnl=15
char id=209  x=298   y=250   width=80    height=122   xoffset=7     yoffset=15    xadvance=96    page=1  chnl=15
char id=210  x=0     y=0     width=100   height=124   xoffset=5     yoffset=13    xadvance=111   page=1  chnl=15
char id=211  x=101   y=0     width=100   height=124   xoffset=5     yoffset=13    xadvance=111   page=1  chnl=15
char id=212  x=258   y=277   width=100   height=124   xoffset=5     yoffset=13    xadvance=111   page=0  chnl=15
char id=213  x=197   y=250   width=100   height=122   xoffset=5     yoffset=15    xadvance=111   page=1  chnl=15
char id=214  x=151   y=122   width=100   height=120   xoffset=5     yoffset=17    xadvance=111   page=2  chnl=15
char id=215  x=31    y=178   width=73    height=74    xoffset=11    yoffset=49    xadvance=96    page=6  chnl=15
char id=216  x=359   y=398   width=100   height=113   xoffset=5     yoffset=32    xadvance=111   page=0  chnl=15
char id=217  x=235   y=125   width=72    height=124   xoffset=7     yoffset=13    xadvance=87    page=1  chnl=15
char id=218  x=162   y=125   width=72    height=124   xoffset=7     yoffset=13    xadvance=87    page=1  chnl=15
char id=219  x=308   y=125   width=72    height=124   xoffset=7     yoffset=13    xadvance=87    page=1  chnl=15
char id=220  x=252   y=122   width=72    height=120   xoffset=7     yoffset=17    xadvance=87    page=2  chnl=15
char id=221  x=368   y=373   width=73    height=121   xoffset=2     yoffset=13    xadvance=79    page=1  chnl=15
char id=222  x=440   y=186   width=55    height=92    xoffset=12    yoffset=42    xadvance=72    page=5  chnl=15
char id=223  x=0     y=0     width=65    height=96    xoffset=9     yoffset=39    xadvance=79    page=4  chnl=15
char id=224  x=0     y=383   width=64    height=93    xoffset=5     yoffset=43    xadvance=79    page=4  chnl=15
char id=225  x=331   y=286   width=64    height=93    xoffset=5     yoffset=43    xadvance=79    page=4  chnl=15
char id=226  x=396   y=286   width=64    height=93    xoffset=5     yoffset=43    xadvance=79    page=4  chnl=15
char id=227  x=320   y=279   width=64    height=91    xoffset=5     yoffset=45    xadvance=79    page=5  chnl=15
char id=228  x=262   y=0     width=64    height=89    xoffset=5     yoffset=47    xadvance=79    page=6  chnl=15
char id=229  x=66    y=0     width=64    height=96    xoffset=5     yoffset=40    xadvance=79    page=4  chnl=15
char id=230  x=118   y=251   width=113   height=64    xoffset=2     yoffset=72    xadvance=119   page=6  chnl=15
char id=231  x=157   y=280   width=50    height=92    xoffset=2     yoffset=72    xadvance=55    page=5  chnl=15
char id=232  x=265   y=287   width=65    height=93    xoffset=3     yoffset=43    xadvance=72    page=4  chnl=15
char id=233  x=199   y=288   width=65    height=93    xoffset=3     yoffset=43    xadvance=72    page=4  chnl=15
char id=234  x=67    y=289   width=65    height=93    xoffset=3     yoffset=43    xadvance=72    page=4  chnl=15
char id=235  x=0     y=0     width=65    height=89    xoffset=3     yoffset=47    xadvance=72    page=6  chnl=15
char id=236  x=243   y=372   width=28    height=91    xoffset=-2    yoffset=43    xadvance=32    page=5  chnl=15
char id=237  x=474   y=0     width=29    height=91    xoffset=5     yoffset=43    xadvance=32    page=5  chnl=15
char id=238  x=157   y=373   width=46    height=91    xoffset=-7    yoffset=43    xadvance=32    page=5  chnl=15
char id=239  x=458   y=0     width=45    height=87    xoffset=-6    yoffset=47    xadvance=32    page=6  chnl=15
char id=240  x=427   y=404   width=65    height=97    xoffset=5     yoffset=39    xadvance=72    page=3  chnl=15
char id=241  x=381   y=0     width=53    height=89    xoffset=4     yoffset=45    xadvance=63    page=6  chnl=15
char id=242  x=0     y=289   width=66    height=93    xoffset=2     yoffset=43    xadvance=72    page=4  chnl=15
char id=243  x=382   y=192   width=66    height=93    xoffset=2     yoffset=43    xadvance=72    page=4  chnl=15
char id=244  x=315   y=192   width=66    height=93    xoffset=2     yoffset=43    xadvance=72    page=4  chnl=15
char id=245  x=253   y=279   width=66    height=91    xoffset=2     yoffset=45    xadvance=72    page=5  chnl=15
char id=246  x=432   y=371   width=66    height=89    xoffset=2     yoffset=47    xadvance=72    page=5  chnl=15
char id=247  x=105   y=177   width=80    height=73    xoffset=7     yoffset=50    xadvance=96    page=6  chnl=15
char id=248  x=258   y=171   width=66    height=71    xoffset=2     yoffset=68    xadvance=72    page=6  chnl=15
char id=249  x=287   y=381   width=53    height=93    xoffset=4     yoffset=43    xadvance=63    page=4  chnl=15
char id=250  x=341   y=380   width=53    height=93    xoffset=4     yoffset=43    xadvance=63    page=4  chnl=15
char id=251  x=179   y=383   width=53    height=93    xoffset=4     yoffset=43    xadvance=63    page=4  chnl=15
char id=252  x=327   y=0     width=53    height=89    xoffset=4     yoffset=47    xadvance=63    page=6  chnl=15
char id=253  x=88    y=244   width=66    height=118   xoffset=2     yoffset=43    xadvance=72    page=2  chnl=15
char id=254  x=325   y=122   width=64    height=120   xoffset=9     yoffset=41    xadvance=79    page=2  chnl=15
char id=255  x=0     y=364   width=66    height=114   xoffset=2     yoffset=47    xadvance=72    page=2  chnl=15
char id=258  x=390   y=122   width=87    height=119   xoffset=-1    yoffset=15    xadvance=87    page=2  chnl=15
char id=259  x=203   y=186   width=64    height=92    xoffset=5     yoffset=44    xadvance=79    page=5  chnl=15
char id=260  x=73    y=288   width=103   height=125   xoffset=-1    yoffset=39    xadvance=87    page=0  chnl=15
char id=261  x=0     y=94    width=80    height=92    xoffset=5     yoffset=72    xadvance=79    page=5  chnl=15
char id=262  x=81    y=125   width=80    height=124   xoffset=3     yoffset=13    xadvance=87    page=1  chnl=15
char id=263  x=461   y=286   width=50    height=93    xoffset=2     yoffset=43    xadvance=55    page=4  chnl=15
char id=268  x=0     y=125   width=80    height=124   xoffset=3     yoffset=13    xadvance=87    page=1  chnl=15
char id=269  x=65    y=383   width=56    height=93    xoffset=2     yoffset=43    xadvance=55    page=4  chnl=15
char id=270  x=291   y=373   width=76    height=121   xoffset=7     yoffset=13    xadvance=87    page=1  chnl=15
char id=271  x=226   y=0     width=88    height=95    xoffset=5     yoffset=41    xadvance=98    page=4  chnl=15
char id=272  x=298   y=0     width=90    height=92    xoffset=-7    yoffset=42    xadvance=87    page=5  chnl=15
char id=273  x=0     y=97    width=77    height=95    xoffset=5     yoffset=41    xadvance=79    page=4  chnl=15
char id=280  x=433   y=250   width=52    height=122   xoffset=7     yoffset=42    xadvance=63    page=1  chnl=15
char id=281  x=137   y=187   width=65    height=92    xoffset=3     yoffset=72    xadvance=72    page=5  chnl=15
char id=282  x=242   y=0     width=51    height=121   xoffset=7     yoffset=13    xadvance=63    page=2  chnl=15
char id=283  x=133   y=289   width=65    height=93    xoffset=3     yoffset=43    xadvance=72    page=4  chnl=15
char id=305  x=496   y=186   width=15    height=60    xoffset=8     yoffset=74    xadvance=32    page=5  chnl=15
char id=313  x=47    y=122   width=44    height=121   xoffset=9     yoffset=13    xadvance=55    page=2  chnl=15
char id=314  x=467   y=138   width=29    height=123   xoffset=5     yoffset=11    xadvance=32    page=0  chnl=15
char id=317  x=450   y=0     width=48    height=121   xoffset=7     yoffset=13    xadvance=55    page=2  chnl=15
char id=318  x=45    y=0     width=38    height=93    xoffset=8     yoffset=41    xadvance=50    page=5  chnl=15
char id=321  x=0     y=280   width=52    height=92    xoffset=1     yoffset=42    xadvance=55    page=5  chnl=15
char id=322  x=477   y=359   width=31    height=93    xoffset=1     yoffset=41    xadvance=32    page=2  chnl=15
char id=323  x=290   y=0     width=80    height=124   xoffset=7     yoffset=13    xadvance=96    page=1  chnl=15
char id=324  x=54    y=373   width=53    height=91    xoffset=4     yoffset=43    xadvance=63    page=5  chnl=15
char id=327  x=371   y=0     width=80    height=124   xoffset=7     yoffset=13    xadvance=96    page=1  chnl=15
char id=328  x=0     y=373   width=53    height=91    xoffset=4     yoffset=43    xadvance=63    page=5  chnl=15
char id=336  x=359   y=273   width=100   height=124   xoffset=5     yoffset=13    xadvance=111   page=0  chnl=15
char id=337  x=247   y=193   width=67    height=93    xoffset=2     yoffset=43    xadvance=72    page=4  chnl=15
char id=338  x=193   y=0     width=104   height=92    xoffset=2     yoffset=42    xadvance=111   page=5  chnl=15
char id=339  x=43    y=321   width=113   height=63    xoffset=2     yoffset=72    xadvance=119   page=6  chnl=15
char id=340  x=184   y=0     width=57    height=121   xoffset=9     yoffset=13    xadvance=72    page=2  chnl=15
char id=341  x=204   y=373   width=38    height=91    xoffset=8     yoffset=43    xadvance=48    page=5  chnl=15
char id=344  x=126   y=0     width=57    height=121   xoffset=9     yoffset=13    xadvance=72    page=2  chnl=15
char id=345  x=108   y=373   width=48    height=91    xoffset=3     yoffset=43    xadvance=48    page=5  chnl=15
char id=346  x=0     y=250   width=65    height=124   xoffset=2     yoffset=13    xadvance=72    page=1  chnl=15
char id=347  x=0     y=0     width=44    height=93    xoffset=2     yoffset=43    xadvance=48    page=5  chnl=15
char id=350  x=341   y=138   width=65    height=134   xoffset=2     yoffset=39    xadvance=72    page=0  chnl=15
char id=351  x=177   y=403   width=42    height=101   xoffset=2     yoffset=72    xadvance=48    page=0  chnl=15
char id=352  x=66    y=250   width=65    height=124   xoffset=2     yoffset=13    xadvance=72    page=1  chnl=15
char id=353  x=449   y=380   width=48    height=93    xoffset=0     yoffset=43    xadvance=48    page=4  chnl=15
char id=354  x=407   y=138   width=59    height=131   xoffset=2     yoffset=42    xadvance=63    page=0  chnl=15
char id=355  x=435   y=242   width=37    height=116   xoffset=0     yoffset=57    xadvance=39    page=2  chnl=15
char id=356  x=66    y=0     width=59    height=121   xoffset=2     yoffset=13    xadvance=63    page=2  chnl=15
char id=357  x=395   y=380   width=53    height=93    xoffset=0     yoffset=41    xadvance=57    page=4  chnl=15
char id=366  x=0     y=288   width=72    height=127   xoffset=7     yoffset=10    xadvance=87    page=0  chnl=15
char id=367  x=131   y=0     width=53    height=96    xoffset=4     yoffset=40    xadvance=63    page=4  chnl=15
char id=368  x=381   y=125   width=72    height=124   xoffset=7     yoffset=13    xadvance=87    page=1  chnl=15
char id=369  x=449   y=192   width=59    height=93    xoffset=4     yoffset=43    xadvance=63    page=4  chnl=15
char id=376  x=243   y=243   width=73    height=117   xoffset=2     yoffset=17    xadvance=79    page=2  chnl=15
char id=377  x=0     y=0     width=65    height=121   xoffset=3     yoffset=13    xadvance=72    page=2  chnl=15
char id=378  x=385   y=279   width=57    height=91    xoffset=2     yoffset=43    xadvance=63    page=5  chnl=15
char id=379  x=317   y=243   width=65    height=117   xoffset=3     yoffset=17    xadvance=72    page=2  chnl=15
char id=380  x=67    y=90    width=57    height=86    xoffset=2     yoffset=48    xadvance=63    page=6  chnl=15
char id=381  x=442   y=373   width=65    height=121   xoffset=3     yoffset=13    xadvance=72    page=1  chnl=15
char id=382  x=443   y=279   width=57    height=91    xoffset=2     yoffset=43    xadvance=63    page=5  chnl=15
char id=402  x=93    y=141   width=76    height=137   xoffset=2     yoffset=27    xadvance=80    page=0  chnl=15
char id=710  x=128   y=477   width=47    height=23    xoffset=0     yoffset=43    xadvance=48    page=4  chnl=15
char id=711  x=79    y=477   width=48    height=23    xoffset=1     yoffset=43    xadvance=48    page=4  chnl=15
char id=713  x=0     y=498   width=47    height=13    xoffset=0     yoffset=51    xadvance=48    page=1  chnl=15
char id=728  x=380   y=474   width=45    height=22    xoffset=1     yoffset=44    xadvance=48    page=4  chnl=15
char id=729  x=134   y=465   width=18    height=18    xoffset=15    yoffset=48    xadvance=48    page=5  chnl=15
char id=730  x=137   y=473   width=28    height=29    xoffset=9     yoffset=40    xadvance=48    page=2  chnl=15
char id=731  x=102   y=477   width=34    height=34    xoffset=11    yoffset=130   xadvance=48    page=2  chnl=15
char id=732  x=450   y=474   width=49    height=20    xoffset=-1    yoffset=45    xadvance=48    page=4  chnl=15
char id=733  x=0     y=479   width=52    height=23    xoffset=2     yoffset=43    xadvance=48    page=2  chnl=15
char id=960  x=32    y=253   width=85    height=67    xoffset=2     yoffset=67    xadvance=89    page=6  chnl=15
char id=8211 x=352   y=495   width=76    height=15    xoffset=-2    yoffset=90    xadvance=72    page=1  chnl=15
char id=8212 x=203   y=495   width=148   height=15    xoffset=-2    yoffset=90    xadvance=144   page=1  chnl=15
char id=8216 x=335   y=470   width=18    height=38    xoffset=6     yoffset=39    xadvance=32    page=2  chnl=15
char id=8217 x=354   y=470   width=18    height=38    xoffset=5     yoffset=41    xadvance=32    page=2  chnl=15
char id=8218 x=434   y=461   width=29    height=44    xoffset=0     yoffset=114   xadvance=32    page=5  chnl=15
char id=8220 x=373   y=470   width=44    height=37    xoffset=5     yoffset=39    xadvance=55    page=2  chnl=15
char id=8221 x=290   y=470   width=44    height=38    xoffset=5     yoffset=41    xadvance=55    page=2  chnl=15
char id=8222 x=418   y=470   width=44    height=36    xoffset=4     yoffset=117   xadvance=55    page=2  chnl=15
char id=8224 x=379   y=250   width=53    height=122   xoffset=4     yoffset=39    xadvance=63    page=1  chnl=15
char id=8225 x=454   y=123   width=54    height=122   xoffset=3     yoffset=39    xadvance=63    page=1  chnl=15
char id=8226 x=250   y=471   width=39    height=39    xoffset=5     yoffset=63    xadvance=50    page=2  chnl=15
char id=8230 x=260   y=476   width=119   height=22    xoffset=12    yoffset=112   xadvance=144   page=4  chnl=15
char id=8240 x=0     y=211   width=149   height=100   xoffset=3     yoffset=40    xadvance=166   page=3  chnl=15
char id=8249 x=455   y=167   width=31    height=69    xoffset=3     yoffset=60    xadvance=39    page=6  chnl=15
char id=8250 x=0     y=255   width=31    height=69    xoffset=3     yoffset=60    xadvance=39    page=6  chnl=15
char id=8364 x=162   y=411   width=69    height=98    xoffset=1     yoffset=39    xadvance=74    page=3  chnl=15
char id=8482 x=139   y=385   width=115   height=60    xoffset=14    yoffset=29    xadvance=144   page=6  chnl=15
char id=8486 x=0     y=0     width=98    height=108   xoffset=7     yoffset=26    xadvance=111   page=3  chnl=15
char id=8706 x=123   y=363   width=67    height=109   xoffset=2     yoffset=27    xadvance=71    page=2  chnl=15
char id=8710 x=226   y=103   width=90    height=101   xoffset=-1    yoffset=33    xadvance=88    page=3  chnl=15
char id=8719 x=400   y=0     width=100   height=137   xoffset=9     yoffset=27    xadvance=119   page=0  chnl=15
char id=8721 x=0     y=150   width=92    height=137   xoffset=7     yoffset=27    xadvance=103   page=0  chnl=15
char id=8725 x=317   y=103   width=73    height=101   xoffset=-27   yoffset=39    xadvance=19    page=3  chnl=15
char id=8729 x=236   y=476   width=23    height=23    xoffset=4     yoffset=77    xadvance=32    page=4  chnl=15
char id=8730 x=46    y=0     width=76    height=140   xoffset=-1    yoffset=-1    xadvance=79    page=0  chnl=15
char id=8734 x=0     y=453   width=84    height=52    xoffset=9     yoffset=57    xadvance=103   page=6  chnl=15
char id=8747 x=0     y=0     width=45    height=149   xoffset=-1    yoffset=0     xadvance=39    page=0  chnl=15
char id=8776 x=85    y=448   width=78    height=52    xoffset=7     yoffset=57    xadvance=94    page=6  chnl=15
char id=8800 x=125   y=90    width=80    height=85    xoffset=8     yoffset=44    xadvance=96    page=6  chnl=15
char id=8804 x=272   y=371   width=79    height=89    xoffset=8     yoffset=49    xadvance=96    page=5  chnl=15
char id=8805 x=352   y=371   width=79    height=89    xoffset=8     yoffset=49    xadvance=96    page=5  chnl=15
char id=9674 x=191   y=361   width=67    height=109   xoffset=1     yoffset=25    xadvance=71    page=2  chnl=15
char id=61441 x=344   y=96    width=65    height=95    xoffset=1     yoffset=39    xadvance=72    page=4  chnl=15
char id=61442 x=278   y=96    width=65    height=95    xoffset=1     yoffset=39    xadvance=72    page=4  chnl=15
char id=64257 x=212   y=97    width=65    height=95    xoffset=1     yoffset=39    xadvance=72    page=4  chnl=15
char id=64258 x=146   y=97    width=65    height=95    xoffset=1     yoffset=39    xadvance=72    page=4  chnl=15
char id=119155 x=46    y=141   width=3     height=3     xoffset=-1    yoffset=-1    xadvance=40    page=0  chnl=15
char id=119156 x=46    y=145   width=3     height=3     xoffset=-1    yoffset=-1    xadvance=40    page=0  chnl=15
char id=119157 x=50    y=141   width=3     height=3     xoffset=-1    yoffset=-1    xadvance=40    page=0  chnl=15
char id=119158 x=50    y=145   width=3     height=3     xoffset=-1    yoffset=-1    xadvance=40    page=0  chnl=15
char id=119159 x=54    y=141   width=3     height=3     xoffset=-1    yoffset=-1    xadvance=40    page=0  chnl=15
char id=119160 x=54    y=145   width=3     height=3     xoffset=-1    yoffset=-1    xadvance=40    page=0  chnl=15
char id=119161 x=58    y=141   width=3     height=3     xoffset=-1    yoffset=-1    xadvance=40    page=0  chnl=15
char id=119162 x=58    y=145   width=3     height=3     xoffset=-1    yoffset=-1    xadvance=40    page=0  chnl=15
char id=917505 x=62    y=141   width=3     height=3     xoffset=-1    yoffset=-1    xadvance=40    page=0  chnl=15
char id=917536 x=62    y=145   width=3     height=3     xoffset=-1    yoffset=-1    xadvance=40    page=0  chnl=15
char id=917537 x=66    y=141   width=3     height=3     xoffset=-1    yoffset=-1    xadvance=40    page=0  chnl=15
char id=917538 x=66    y=145   width=3     height=3     xoffset=-1    yoffset=-1    xadvance=40    page=0  chnl=15
char id=917539 x=70    y=141   width=3     height=3     xoffset=-1    yoffset=-1    xadvance=40    page=0  chnl=15
char id=917540 x=70    y=145   width=3     height=3     xoffset=-1    yoffset=-1    xadvance=40    page=0  chnl=15
char id=917541 x=74    y=141   width=3     height=3     xoffset=-1    yoffset=-1    xadvance=40    page=0  chnl=15
char id=917542 x=74    y=145   width=3     height=3     xoffset=-1    yoffset=-1    xadvance=40    page=0  chnl=15
char id=917543 x=78    y=141   width=3     height=3     xoffset=-1    yoffset=-1    xadvance=40    page=0  chnl=15
char id=917544 x=78    y=145   width=3     height=3     xoffset=-1    yoffset=-1    xadvance=40    page=0  chnl=15
char id=917545 x=82    y=141   width=3     height=3     xoffset=-1    yoffset=-1    xadvance=40    page=0  chnl=15
char id=917546 x=82    y=145   width=3     height=3     xoffset=-1    yoffset=-1    xadvance=40    page=0  chnl=15
char id=917547 x=86    y=141   width=3     height=3     xoffset=-1    yoffset=-1    xadvance=40    page=0  chnl=15
char id=917548 x=86    y=145   width=3     height=3     xoffset=-1    yoffset=-1    xadvance=40    page=0  chnl=15
char id=917549 x=501   y=4     width=3     height=3     xoffset=-1    yoffset=-1    xadvance=40    page=0  chnl=15
char id=917550 x=501   y=8     width=3     height=3     xoffset=-1    yoffset=-1    xadvance=40    page=0  chnl=15
char id=917551 x=501   y=12    width=3     height=3     xoffset=-1    yoffset=-1    xadvance=40    page=0  chnl=15
char id=917552 x=501   y=16    width=3     height=3     xoffset=-1    yoffset=-1    xadvance=40    page=0  chnl=15
char id=917553 x=501   y=20    width=3     height=3     xoffset=-1    yoffset=-1    xadvance=40    page=0  chnl=15
char id=917554 x=501   y=24    width=3     height=3     xoffset=-1    yoffset=-1    xadvance=40    page=0  chnl=15
char id=917555 x=501   y=28    width=3     height=3     xoffset=-1    yoffset=-1    xadvance=40    page=0  chnl=15
char id=917556 x=501   y=32    width=3     height=3     xoffset=-1    yoffset=-1    xadvance=40    page=0  chnl=15
char id=917557 x=501   y=36    width=3     height=3     xoffset=-1    yoffset=-1    xadvance=40    page=0  chnl=15
char id=917558 x=501   y=40    width=3     height=3     xoffset=-1    yoffset=-1    xadvance=40    page=0  chnl=15
char id=917559 x=501   y=44    width=3     height=3     xoffset=-1    yoffset=-1    xadvance=40    page=0  chnl=15
char id=917560 x=501   y=48    width=3     height=3     xoffset=-1    yoffset=-1    xadvance=40    page=0  chnl=15
char id=917561 x=501   y=52    width=3     height=3     xoffset=-1    yoffset=-1    xadvance=40    page=0  chnl=15
char id=917562 x=501   y=56    width=3     height=3     xoffset=-1    yoffset=-1    xadvance=40    page=0  chnl=15
char id=917563 x=501   y=60    width=3     height=3     xoffset=-1    yoffset=-1    xadvance=40    page=0  chnl=15
char id=917564 x=501   y=64    width=3     height=3     xoffset=-1    yoffset=-1    xadvance=40    page=0  chnl=15
char id=917565 x=501   y=68    width=3     height=3     xoffset=-1    yoffset=-1    xadvance=40    page=0  chnl=15
char id=917566 x=501   y=72    width=3     height=3     xoffset=-1    yoffset=-1    xadvance=40    page=0  chnl=15
char id=917567 x=501   y=76    width=3     height=3     xoffset=-1    yoffset=-1    xadvance=40    page=0  chnl=15
char id=917568 x=501   y=80    width=3     height=3     xoffset=-1    yoffset=-1    xadvance=40    page=0  chnl=15
char id=917569 x=501   y=84    width=3     height=3     xoffset=-1    yoffset=-1    xadvance=40    page=0  chnl=15
char id=917570 x=501   y=88    width=3     height=3     xoffset=-1    yoffset=-1    xadvance=40    page=0  chnl=15
char id=917571 x=501   y=92    width=3     height=3     xoffset=-1    yoffset=-1    xadvance=40    page=0  chnl=15
char id=917572 x=501   y=96    width=3     height=3     xoffset=-1    yoffset=-1    xadvance=40    page=0  chnl=15
char id=917573 x=501   y=100   width=3     height=3     xoffset=-1    yoffset=-1    xadvance=40    page=0  chnl=15
char id=917574 x=501   y=104   width=3     height=3     xoffset=-1    yoffset=-1    xadvance=40    page=0  chnl=15
char id=917575 x=501   y=108   width=3     height=3     xoffset=-1    yoffset=-1    xadvance=40    page=0  chnl=15
char id=917576 x=501   y=112   width=3     height=3     xoffset=-1    yoffset=-1    xadvance=40    page=0  chnl=15
char id=917577 x=501   y=116   width=3     height=3     xoffset=-1    yoffset=-1    xadvance=40    page=0  chnl=15
char id=917578 x=501   y=120   width=3     height=3     xoffset=-1    yoffset=-1    xadvance=40    page=0  chnl=15
char id=917579 x=501   y=124   width=3     height=3     xoffset=-1    yoffset=-1    xadvance=40    page=0  chnl=15
char id=917580 x=501   y=128   width=3     height=3     xoffset=-1    yoffset=-1    xadvance=40    page=0  chnl=15
char id=917581 x=501   y=132   width=3     height=3     xoffset=-1    yoffset=-1    xadvance=40    page=0  chnl=15
char id=917582 x=505   y=4     width=3     height=3     xoffset=-1    yoffset=-1    xadvance=40    page=0  chnl=15
char id=917583 x=505   y=8     width=3     height=3     xoffset=-1    yoffset=-1    xadvance=40    page=0  chnl=15
char id=917584 x=505   y=12    width=3     height=3     xoffset=-1    yoffset=-1    xadvance=40    page=0  chnl=15
char id=917585 x=505   y=16    width=3     height=3     xoffset=-1    yoffset=-1    xadvance=40    page=0  chnl=15
char id=917586 x=505   y=20    width=3     height=3     xoffset=-1    yoffset=-1    xadvance=40    page=0  chnl=15
char id=917587 x=505   y=24    width=3     height=3     xoffset=-1    yoffset=-1    xadvance=40    page=0  chnl=15
char id=917588 x=505   y=28    width=3     height=3     xoffset=-1    yoffset=-1    xadvance=40    page=0  chnl=15
char id=917589 x=505   y=32    width=3     height=3     xoffset=-1    yoffset=-1    xadvance=40    page=0  chnl=15
char id=917590 x=505   y=36    width=3     height=3     xoffset=-1    yoffset=-1    xadvance=40    page=0  chnl=15
char id=917591 x=505   y=40    width=3     height=3     xoffset=-1    yoffset=-1    xadvance=40    page=0  chnl=15
char id=917592 x=505   y=44    width=3     height=3     xoffset=-1    yoffset=-1    xadvance=40    page=0  chnl=15
char id=917593 x=505   y=48    width=3     height=3     xoffset=-1    yoffset=-1    xadvance=40    page=0  chnl=15
char id=917594 x=505   y=52    width=3     height=3     xoffset=-1    yoffset=-1    xadvance=40    page=0  chnl=15
char id=917595 x=505   y=56    width=3     height=3     xoffset=-1    yoffset=-1    xadvance=40    page=0  chnl=15
char id=917596 x=505   y=60    width=3     height=3     xoffset=-1    yoffset=-1    xadvance=40    page=0  chnl=15
char id=917597 x=505   y=64    width=3     height=3     xoffset=-1    yoffset=-1    xadvance=40    page=0  chnl=15
char id=917598 x=505   y=68    width=3     height=3     xoffset=-1    yoffset=-1    xadvance=40    page=0  chnl=15
char id=917599 x=505   y=72    width=3     height=3     xoffset=-1    yoffset=-1    xadvance=40    page=0  chnl=15
char id=917600 x=505   y=76    width=3     height=3     xoffset=-1    yoffset=-1    xadvance=40    page=0  chnl=15
char id=917601 x=505   y=80    width=3     height=3     xoffset=-1    yoffset=-1    xadvance=40    page=0  chnl=15
char id=917602 x=505   y=84    width=3     height=3     xoffset=-1    yoffset=-1    xadvance=40    page=0  chnl=15
char id=917603 x=505   y=88    width=3     height=3     xoffset=-1    yoffset=-1    xadvance=40    page=0  chnl=15
char id=917604 x=505   y=92    width=3     height=3     xoffset=-1    yoffset=-1    xadvance=40    page=0  chnl=15
char id=917605 x=505   y=96    width=3     height=3     xoffset=-1    yoffset=-1    xadvance=40    page=0  chnl=15
char id=917606 x=505   y=100   width=3     height=3     xoffset=-1    yoffset=-1    xadvance=40    page=0  chnl=15
char id=917607 x=505   y=104   width=3     height=3     xoffset=-1    yoffset=-1    xadvance=40    page=0  chnl=15
char id=917608 x=505   y=108   width=3     height=3     xoffset=-1    yoffset=-1    xadvance=40    page=0  chnl=15
char id=917609 x=505   y=112   width=3     height=3     xoffset=-1    yoffset=-1    xadvance=40    page=0  chnl=15
char id=917610 x=505   y=116   width=3     height=3     xoffset=-1    yoffset=-1    xadvance=40    page=0  chnl=15
char id=917611 x=505   y=120   width=3     height=3     xoffset=-1    yoffset=-1    xadvance=40    page=0  chnl=15
char id=917612 x=505   y=124   width=3     height=3     xoffset=-1    yoffset=-1    xadvance=40    page=0  chnl=15
char id=917613 x=505   y=128   width=3     height=3     xoffset=-1    yoffset=-1    xadvance=40    page=0  chnl=15
char id=917614 x=505   y=132   width=3     height=3     xoffset=-1    yoffset=-1    xadvance=40    page=0  chnl=15
char id=917615 x=502   y=260   width=3     height=3     xoffset=-1    yoffset=-1    xadvance=40    page=0  chnl=15
char id=917616 x=506   y=260   width=3     height=3     xoffset=-1    yoffset=-1    xadvance=40    page=0  chnl=15
char id=917617 x=93    y=279   width=3     height=3     xoffset=-1    yoffset=-1    xadvance=40    page=0  chnl=15
char id=917618 x=93    y=283   width=3     height=3     xoffset=-1    yoffset=-1    xadvance=40    page=0  chnl=15
char id=917619 x=97    y=279   width=3     height=3     xoffset=-1    yoffset=-1    xadvance=40    page=0  chnl=15
char id=917620 x=97    y=283   width=3     height=3     xoffset=-1    yoffset=-1    xadvance=40    page=0  chnl=15
char id=917621 x=101   y=279   width=3     height=3     xoffset=-1    yoffset=-1    xadvance=40    page=0  chnl=15
char id=917622 x=101   y=283   width=3     height=3     xoffset=-1    yoffset=-1    xadvance=40    page=0  chnl=15
char id=917623 x=105   y=279   width=3     height=3     xoffset=-1    yoffset=-1    xadvance=40    page=0  chnl=15
char id=917624 x=105   y=283   width=3     height=3     xoffset=-1    yoffset=-1    xadvance=40    page=0  chnl=15
char id=917625 x=109   y=279   width=3     height=3     xoffset=-1    yoffset=-1    xadvance=40    page=0  chnl=15
char id=917626 x=109   y=283   width=3     height=3     xoffset=-1    yoffset=-1    xadvance=40    page=0  chnl=15
char id=917627 x=113   y=279   width=3     height=3     xoffset=-1    yoffset=-1    xadvance=40    page=0  chnl=15
char id=917628 x=113   y=283   width=3     height=3     xoffset=-1    yoffset=-1    xadvance=40    page=0  chnl=15
char id=917629 x=117   y=279   width=3     height=3     xoffset=-1    yoffset=-1    xadvance=40    page=0  chnl=15
char id=917630 x=117   y=283   width=3     height=3     xoffset=-1    yoffset=-1    xadvance=40    page=0  chnl=15
char id=917631 x=121   y=279   width=3     height=3     xoffset=-1    yoffset=-1    xadvance=40    page=0  chnl=15
kernings count=375
kerning first=8217 second=115 amount=-3  
kerning first=8217 second=100 amount=-4  
kerning first=8216 second=197 amount=-12 
kerning first=8216 second=196 amount=-12 
kerning first=8216 second=65  amount=-12 
kerning first=8220 second=197 amount=-9  
kerning first=8220 second=196 amount=-9  
kerning first=8220 second=65  amount=-9  
kerning first=44  second=8221 amount=-1  
kerning first=44  second=8217 amount=-1  
kerning first=246 second=121 amount=-3  
kerning first=46  second=8221 amount=-6  
kerning first=46  second=8217 amount=-6  
kerning first=246 second=120 amount=-4  
kerning first=246 second=119 amount=-4  
kerning first=65  second=67  amount=-6  
kerning first=65  second=71  amount=-4  
kerning first=65  second=79  amount=-6  
kerning first=65  second=81  amount=-4  
kerning first=65  second=84  amount=-7  
kerning first=65  second=85  amount=-4  
kerning first=65  second=86  amount=-12 
kerning first=65  second=87  amount=-12 
kerning first=65  second=89  amount=-9  
kerning first=229 second=121 amount=-3  
kerning first=228 second=121 amount=-3  
kerning first=65  second=118 amount=-4  
kerning first=65  second=119 amount=-6  
kerning first=65  second=121 amount=-6  
kerning first=65  second=8221 amount=-13 
kerning first=65  second=8217 amount=-13 
kerning first=66  second=44  amount=-7  
kerning first=66  second=46  amount=-4  
kerning first=66  second=65  amount=-3  
kerning first=66  second=85  amount=-3  
kerning first=66  second=196 amount=-3  
kerning first=66  second=197 amount=-3  
kerning first=66  second=220 amount=-3  
kerning first=214 second=89  amount=-4  
kerning first=214 second=88  amount=-3  
kerning first=68  second=44  amount=-9  
kerning first=68  second=46  amount=-4  
kerning first=68  second=65  amount=-3  
kerning first=68  second=86  amount=-3  
kerning first=68  second=87  amount=-3  
kerning first=68  second=89  amount=-4  
kerning first=68  second=196 amount=-3  
kerning first=68  second=197 amount=-3  
kerning first=70  second=44  amount=-14 
kerning first=70  second=46  amount=-14 
kerning first=70  second=65  amount=-4  
kerning first=70  second=97  amount=-1  
kerning first=70  second=101 amount=1   
kerning first=214 second=87  amount=-3  
kerning first=70  second=111 amount=-1  
kerning first=70  second=114 amount=-1  
kerning first=70  second=196 amount=-4  
kerning first=70  second=197 amount=-4  
kerning first=70  second=228 amount=-1  
kerning first=70  second=229 amount=-1  
kerning first=70  second=246 amount=-1  
kerning first=71  second=44  amount=-9  
kerning first=71  second=46  amount=-6  
kerning first=74  second=44  amount=-7  
kerning first=74  second=46  amount=-7  
kerning first=74  second=58  amount=-1  
kerning first=74  second=59  amount=-6  
kerning first=214 second=86  amount=-3  
kerning first=74  second=97  amount=-1  
kerning first=214 second=84  amount=-3  
kerning first=74  second=111 amount=-1  
kerning first=214 second=65  amount=-3  
kerning first=74  second=121 amount=-1  
kerning first=197 second=8217 amount=-13 
kerning first=197 second=8221 amount=-13 
kerning first=74  second=228 amount=-1  
kerning first=74  second=229 amount=-1  
kerning first=74  second=246 amount=-1  
kerning first=197 second=121 amount=-6  
kerning first=75  second=67  amount=-4  
kerning first=75  second=71  amount=-4  
kerning first=75  second=79  amount=-3  
kerning first=75  second=97  amount=-3  
kerning first=75  second=101 amount=-1  
kerning first=75  second=111 amount=-3  
kerning first=75  second=117 amount=-1  
kerning first=75  second=118 amount=-4  
kerning first=75  second=119 amount=-7  
kerning first=75  second=121 amount=-6  
kerning first=75  second=214 amount=-3  
kerning first=75  second=228 amount=-3  
kerning first=75  second=229 amount=-3  
kerning first=75  second=246 amount=-3  
kerning first=75  second=252 amount=-1  
kerning first=76  second=67  amount=-1  
kerning first=76  second=71  amount=-3  
kerning first=76  second=79  amount=-1  
kerning first=76  second=84  amount=-4  
kerning first=76  second=85  amount=-1  
kerning first=76  second=86  amount=-4  
kerning first=76  second=87  amount=-7  
kerning first=76  second=89  amount=-7  
kerning first=76  second=119 amount=-1  
kerning first=76  second=121 amount=-1  
kerning first=76  second=214 amount=-1  
kerning first=76  second=220 amount=-1  
kerning first=76  second=8221 amount=-9  
kerning first=76  second=8217 amount=-7  
kerning first=197 second=119 amount=-6  
kerning first=197 second=118 amount=-4  
kerning first=197 second=89  amount=-9  
kerning first=197 second=87  amount=-12 
kerning first=197 second=86  amount=-12 
kerning first=79  second=44  amount=-9  
kerning first=79  second=46  amount=-6  
kerning first=79  second=65  amount=-3  
kerning first=79  second=84  amount=-3  
kerning first=79  second=86  amount=-3  
kerning first=79  second=87  amount=-3  
kerning first=79  second=88  amount=-3  
kerning first=79  second=89  amount=-4  
kerning first=79  second=196 amount=-3  
kerning first=79  second=197 amount=-3  
kerning first=80  second=44  amount=-23 
kerning first=80  second=46  amount=-19 
kerning first=80  second=65  amount=-12 
kerning first=80  second=97  amount=-9  
kerning first=80  second=101 amount=-9  
kerning first=80  second=111 amount=-7  
kerning first=80  second=196 amount=-12 
kerning first=80  second=197 amount=-12 
kerning first=80  second=229 amount=-9  
kerning first=197 second=85  amount=-4  
kerning first=81  second=46  amount=-1  
kerning first=197 second=84  amount=-7  
kerning first=81  second=84  amount=-1  
kerning first=197 second=81  amount=-4  
kerning first=81  second=86  amount=-3  
kerning first=81  second=87  amount=-3  
kerning first=81  second=89  amount=-4  
kerning first=197 second=79  amount=-6  
kerning first=197 second=71  amount=-4  
kerning first=197 second=67  amount=-6  
kerning first=196 second=8217 amount=-13 
kerning first=196 second=8221 amount=-13 
kerning first=196 second=121 amount=-6  
kerning first=82  second=86  amount=-3  
kerning first=82  second=87  amount=-3  
kerning first=82  second=89  amount=-7  
kerning first=82  second=97  amount=-6  
kerning first=82  second=101 amount=-4  
kerning first=82  second=111 amount=-4  
kerning first=196 second=119 amount=-6  
kerning first=196 second=118 amount=-4  
kerning first=82  second=119 amount=-3  
kerning first=82  second=121 amount=-4  
kerning first=196 second=89  amount=-9  
kerning first=196 second=87  amount=-12 
kerning first=82  second=228 amount=-6  
kerning first=82  second=229 amount=-6  
kerning first=82  second=246 amount=-4  
kerning first=196 second=86  amount=-12 
kerning first=83  second=44  amount=-4  
kerning first=83  second=46  amount=-3  
kerning first=84  second=44  amount=-12 
kerning first=84  second=45  amount=-10 
kerning first=84  second=46  amount=-12 
kerning first=84  second=58  amount=-4  
kerning first=84  second=59  amount=-10 
kerning first=84  second=65  amount=-3  
kerning first=84  second=67  amount=-4  
kerning first=84  second=71  amount=-3  
kerning first=84  second=79  amount=-3  
kerning first=84  second=81  amount=-3  
kerning first=84  second=97  amount=-12 
kerning first=84  second=99  amount=-7  
kerning first=84  second=101 amount=-12 
kerning first=196 second=85  amount=-4  
kerning first=196 second=84  amount=-7  
kerning first=84  second=109 amount=-7  
kerning first=84  second=111 amount=-12 
kerning first=84  second=114 amount=-7  
kerning first=84  second=115 amount=-7  
kerning first=84  second=117 amount=-6  
kerning first=84  second=119 amount=-7  
kerning first=84  second=121 amount=-6  
kerning first=84  second=122 amount=-3  
kerning first=84  second=196 amount=-3  
kerning first=84  second=197 amount=-3  
kerning first=84  second=214 amount=-3  
kerning first=84  second=229 amount=-12 
kerning first=85  second=44  amount=-4  
kerning first=85  second=46  amount=-1  
kerning first=196 second=81  amount=-4  
kerning first=196 second=79  amount=-6  
kerning first=196 second=71  amount=-4  
kerning first=86  second=44  amount=-17 
kerning first=86  second=45  amount=-9  
kerning first=86  second=46  amount=-14 
kerning first=86  second=58  amount=-4  
kerning first=86  second=59  amount=-13 
kerning first=86  second=65  amount=-10 
kerning first=86  second=67  amount=-1  
kerning first=86  second=71  amount=-3  
kerning first=86  second=79  amount=-4  
kerning first=86  second=81  amount=-3  
kerning first=86  second=97  amount=-10 
kerning first=86  second=101 amount=-9  
kerning first=196 second=67  amount=-6  
kerning first=86  second=111 amount=-9  
kerning first=86  second=114 amount=-3  
kerning first=86  second=117 amount=-3  
kerning first=86  second=121 amount=-3  
kerning first=86  second=196 amount=-10 
kerning first=86  second=197 amount=-10 
kerning first=86  second=214 amount=-4  
kerning first=86  second=229 amount=-10 
kerning first=87  second=44  amount=-16 
kerning first=87  second=45  amount=-10 
kerning first=87  second=46  amount=-13 
kerning first=87  second=58  amount=-6  
kerning first=87  second=59  amount=-12 
kerning first=87  second=65  amount=-10 
kerning first=87  second=67  amount=-3  
kerning first=87  second=71  amount=-3  
kerning first=87  second=79  amount=-3  
kerning first=87  second=97  amount=-10 
kerning first=87  second=100 amount=-13 
kerning first=87  second=101 amount=-12 
kerning first=122 second=100 amount=-1  
kerning first=121 second=246 amount=-4  
kerning first=87  second=111 amount=-12 
kerning first=87  second=114 amount=-4  
kerning first=87  second=117 amount=-3  
kerning first=87  second=121 amount=-3  
kerning first=87  second=196 amount=-10 
kerning first=87  second=197 amount=-10 
kerning first=87  second=214 amount=-3  
kerning first=87  second=229 amount=-10 
kerning first=88  second=67  amount=-4  
kerning first=88  second=71  amount=-4  
kerning first=88  second=79  amount=-4  
kerning first=88  second=214 amount=-4  
kerning first=89  second=44  amount=-13 
kerning first=89  second=45  amount=-10 
kerning first=89  second=46  amount=-12 
kerning first=89  second=58  amount=-10 
kerning first=89  second=59  amount=-13 
kerning first=89  second=65  amount=-6  
kerning first=89  second=67  amount=-4  
kerning first=89  second=71  amount=-4  
kerning first=89  second=79  amount=-6  
kerning first=89  second=83  amount=-1  
kerning first=89  second=97  amount=-13 
kerning first=89  second=100 amount=-12 
kerning first=89  second=101 amount=-12 
kerning first=121 second=229 amount=-6  
kerning first=89  second=111 amount=-12 
kerning first=89  second=112 amount=-9  
kerning first=89  second=113 amount=-12 
kerning first=89  second=117 amount=-6  
kerning first=89  second=118 amount=-1  
kerning first=89  second=196 amount=-6  
kerning first=89  second=197 amount=-6  
kerning first=89  second=214 amount=-6  
kerning first=89  second=229 amount=-13 
kerning first=121 second=228 amount=-6  
kerning first=121 second=111 amount=-4  
kerning first=121 second=103 amount=-3  
kerning first=121 second=101 amount=-3  
kerning first=121 second=100 amount=-6  
kerning first=121 second=99  amount=-4  
kerning first=97  second=121 amount=-3  
kerning first=98  second=44  amount=-6  
kerning first=98  second=46  amount=-3  
kerning first=98  second=98  amount=-1  
kerning first=121 second=97  amount=-6  
kerning first=121 second=46  amount=-9  
kerning first=98  second=118 amount=-3  
kerning first=98  second=119 amount=-4  
kerning first=98  second=121 amount=-7  
kerning first=121 second=44  amount=-10 
kerning first=120 second=246 amount=-3  
kerning first=120 second=111 amount=-3  
kerning first=99  second=104 amount=6   
kerning first=99  second=107 amount=3   
kerning first=120 second=101 amount=-3  
kerning first=99  second=121 amount=1   
kerning first=120 second=100 amount=-3  
kerning first=120 second=99  amount=-3  
kerning first=100 second=119 amount=-3  
kerning first=100 second=121 amount=-4  
kerning first=101 second=44  amount=-6  
kerning first=101 second=46  amount=-1  
kerning first=101 second=98  amount=-3  
kerning first=119 second=246 amount=-3  
kerning first=119 second=229 amount=-6  
kerning first=119 second=228 amount=-6  
kerning first=101 second=119 amount=-3  
kerning first=101 second=120 amount=-4  
kerning first=101 second=121 amount=-6  
kerning first=119 second=113 amount=-3  
kerning first=102 second=32  amount=4   
kerning first=102 second=33  amount=3   
kerning first=102 second=44  amount=-9  
kerning first=102 second=46  amount=-6  
kerning first=102 second=63  amount=6   
kerning first=119 second=111 amount=-3  
kerning first=119 second=101 amount=-3  
kerning first=119 second=100 amount=-3  
kerning first=119 second=99  amount=-1  
kerning first=119 second=97  amount=-6  
kerning first=102 second=111 amount=-3  
kerning first=102 second=8221 amount=10  
kerning first=102 second=8217 amount=10  
kerning first=119 second=46  amount=-9  
kerning first=103 second=44  amount=-3  
kerning first=103 second=46  amount=-3  
kerning first=103 second=97  amount=-3  
kerning first=103 second=101 amount=-3  
kerning first=119 second=44  amount=-13 
kerning first=118 second=246 amount=-3  
kerning first=118 second=229 amount=-3  
kerning first=118 second=228 amount=-3  
kerning first=103 second=121 amount=-3  
kerning first=103 second=228 amount=-3  
kerning first=103 second=229 amount=-3  
kerning first=118 second=113 amount=-3  
kerning first=104 second=121 amount=-3  
kerning first=118 second=111 amount=-3  
kerning first=107 second=101 amount=-3  
kerning first=107 second=111 amount=-1  
kerning first=118 second=101 amount=-3  
kerning first=107 second=246 amount=-1  
kerning first=118 second=100 amount=-3  
kerning first=118 second=99  amount=-1  
kerning first=109 second=117 amount=3   
kerning first=109 second=121 amount=-3  
kerning first=109 second=252 amount=3   
kerning first=118 second=97  amount=-3  
kerning first=118 second=46  amount=-9  
kerning first=110 second=121 amount=-4  
kerning first=118 second=44  amount=-12 
kerning first=110 second=8217 amount=-3  
kerning first=111 second=44  amount=-4  
kerning first=111 second=46  amount=-3  
kerning first=115 second=119 amount=-1  
kerning first=115 second=46  amount=-1  
kerning first=111 second=119 amount=-4  
kerning first=111 second=120 amount=-4  
kerning first=111 second=121 amount=-3  
kerning first=115 second=44  amount=-3  
kerning first=112 second=44  amount=-6  
kerning first=112 second=46  amount=-3  
kerning first=112 second=119 amount=-4  
kerning first=112 second=121 amount=-6  
kerning first=114 second=252 amount=3   
kerning first=114 second=44  amount=-10 
kerning first=114 second=45  amount=-4  
kerning first=114 second=46  amount=-10 
kerning first=114 second=246 amount=-3  
kerning first=114 second=59  amount=-4  
kerning first=114 second=97  amount=-1  
kerning first=114 second=229 amount=-1  
kerning first=114 second=228 amount=-1  
kerning first=114 second=118 amount=6   
kerning first=114 second=117 amount=3   
kerning first=114 second=106 amount=3   
kerning first=114 second=107 amount=3   
kerning first=114 second=108 amount=3   
kerning first=114 second=109 amount=3   
kerning first=114 second=110 amount=3   
kerning first=114 second=111 amount=-3  
kerning first=114 second=116 amount=3   
kerning first=114 second=113 amount=-1  
